Country;"Confirmed Cases";Deaths;Recovered;Latitude;Longitude;"Country Code";Size
US;4546745;153148;1438160;44.693947;-69.381927;US;332639102
Brazil;2662485;92475;2008854;-10.1753;-48.2982;BR;211715973
India;1695988;36511;1094374;23.814082;87.979803;IN;1326093247
Russia;843890;14034;645316;52.248521;115.956325;RU;141722205
"South Africa";493183;8005;326171;-30.5595;22.9375;ZA;56463617
Mexico;424637;46688;327115;22.7709;-102.5832;MX;128649565
Peru;407492;19021;283915;-9.621718;-73.444929;PE;31914989
Chile;355667;9457;328327;-33.0472;-71.6127;CL;18186770
Iran;306752;16982;265830;32.427908;53.688046;IR;84923314
"United Kingdom";303768;46166;533;52.1307;-3.7837;GB;65761117
Colombia;295508;10105;154387;4.4234;-69.2878;CO;49084841
Spain;288522;28445;150376;42.9896;-2.6189;ES;50015792
Pakistan;278305;5951;247177;26.009446;68.776807;PK;233500636
"Saudi Arabia";277478;2887;237548;23.885942;45.079162;SA;34173498
Italy;247537;35141;199974;45.43490485;12.33845213;IT;62402659
Bangladesh;239860;3132;136253;23.685;90.3563;BD;162650853
Turkey;230873;5691;214535;38.9637;35.2433;TR;82017514
France;225101;30268;81673;46.2276;2.2137;FR;67848156
Germany;210697;9154;192596;51.011;10.8453;DE;80159662
Argentina;191302;3543;83780;-38.4161;-63.6167;AR;45479118
Iraq;124609;4741;87434;33.223191;43.679291;IQ;38872655
Canada;118281;8979;102906;64.2823;-135;CA;37694085
Qatar;110911;174;107578;25.3548;51.1839;QA;2444174
Indonesia;109936;5193;67919;-0.7893;113.9213;ID;267026366
Egypt;94078;4805;39638;26.820553;30.802498;EG;104124440
Kazakhstan;90367;793;60825;48.0196;66.9237;KZ;19091949
Philippines;85486;1962;26996;12.879721;121.774017;PH;109180815
Ecuador;85355;5702;36044;-1.8312;-78.1834;EC;16904867
China;84337;4634;78990;29.1832;120.0934;CN;1394015977
Sweden;80422;5743;0;58.2528;13.0596;SE;10202491
Oman;79159;421;61421;21.512583;55.923255;OM;4664844
Bolivia;76789;2977;23582;-16.2902;-63.5887;BO;11639909
Ukraine;72609;1733;40516;50.2547;28.6587;UA;43922939
Israel;70970;512;43850;31.046051;34.851612;IL;8675475
"Dominican Republic";69649;1160;36470;18.7357;-70.1627;DO;10499707
Belgium;68751;9841;17546;50.8333;4.469936;BE;11720716
Belarus;67808;559;62444;53.7098;27.9534;BY;9477918
Kuwait;67448;453;58525;29.31166;47.481766;KW;2993706
Panama;65256;1421;39166;8.538;-80.7821;PA;3894082
"United Arab Emirates";60760;351;54255;23.424076;53.847818;AE;9992083
Netherlands;54743;6148;7;51.937835;4.462114;NL;17280397
Singapore;52512;27;46491;1.2833;103.8333;SG;6209660
Romania;52111;2379;27346;45.9432;24.9668;RO;21302893
Portugal;51072;1735;36483;39.3999;-8.2245;PT;10302674
Guatemala;49789;1924;36816;15.7835;-90.2308;GT;17153288
Poland;46346;1721;34374;51.9194;19.1451;PL;38282325
Nigeria;43151;879;19565;9.082;8.6753;NG;214028302
Honduras;42014;1337;5554;15.2;-86.2419;HN;9235340
Bahrain;40982;147;37840;26.0275;50.55;BH;1505003
Armenia;38841;749;29557;40.0691;45.0382;AM;3021324
Japan;37778;1009;25347;35.612364;138.611489;JP;125507472
Afghanistan;36710;1283;25509;33.93911;67.709953;AF;36643815
Kyrgyzstan;36299;1397;26419;41.20438;74.766098;KG;5964897
Ghana;35501;182;32096;7.9465;-1.0232;GH;29340248
Switzerland;35412;1981;31100;46.8182;8.2275;CH;8403994
Azerbaijan;32157;454;26474;40.1431;47.5769;AZ;10205810
Algeria;30394;1210;20537;28.0339;1.6596;DZ;42972878
Ireland;26065;1763;23364;53.1424;-7.6921;IE;5176569
Serbia;25882;582;0;44.0165;21.0059;RS;7012165
Moldova;24733;783;17571;47.4116;28.3699;MD;3364496
Uzbekistan;24569;145;14916;41.377491;64.585262;UZ;30565411
Morocco;24322;353;17658;31.7917;-7.0926;MA;35561654
Austria;21212;718;18911;47.5162;14.5501;AT;8859449
Kenya;20636;341;8165;-0.0236;37.9062;KE;53527936
Nepal;20086;56;14492;28.1667;84.25;NP;30327877
Venezuela;18574;164;10421;6.4238;-66.5897;VE;28644603
"Puerto Rico";17872;225;0;18.2208;-66.5901;PR;3189068
"Costa Rica";17820;150;4404;9.7489;-83.7534;CR;5097988
Ethiopia;17530;274;6950;9.145;40.4897;ET;108113150
Australia;17282;201;10202;-31.9505;115.8605;AU;25466459
Cameroon;17255;391;15320;3.848;11.5021;CM;27744989
"El Salvador";17050;459;8495;13.7942;-88.8965;SV;6481102
Czechia;16574;382;11569;49.8175;15.473;CZ;10702498
"Cote d'Ivoire";16047;102;11428;7.54;-5.5471;CI;27481086
"Korea, South";14336;301;13233;35.907757;127.766922;KR;51835110
Denmark;13789;615;12578;56.2639;9.5018;DK;5869410
"Bosnia and Herzegovina";11876;339;5959;43.9159;17.6791;BA;3835586
Bulgaria;11690;383;6319;42.7339;25.4858;BG;6966899
Sudan;11644;746;6119;12.8628;30.2176;SD;45561556
Madagascar;11273;107;8109;-18.766947;46.869107;MG;26955737
"North Macedonia";10754;486;6554;41.6086;21.7453;MK;2125971
Senegal;10284;209;6822;14.4974;-14.4524;SN;15736368
Norway;9240;255;8752;60.472;8.4689;NO;5467439
"Congo (Kinshasa)";9084;215;7030;-4.0383;21.7587;CG;101780263
Malaysia;8985;125;8647;4.210484;101.975766;MY;32652083
Kosovo;8104;212;4463;42.602636;20.902977;XK;1932774
Finland;7443;329;6950;61.92411;25.748151;FI;5571665
Haiti;7424;161;4606;18.9712;-72.2852;HT;11067777
Tajikistan;7409;60;6193;38.861034;71.276093;TJ;8873669
Gabon;7352;49;4943;-0.8037;11.6094;GA;2230908
Guinea;7308;46;6458;9.9456;-9.6966;GN;12527440
Luxembourg;6695;114;5192;49.8153;6.1296;LU;628381
Mauritania;6310;157;4962;21.0079;-10.9408;MR;4005475
Zambia;6228;165;4130;-13.133897;27.849332;ZM;17426623
Paraguay;5338;49;3548;-23.4425;-58.4438;PY;7191685
Albania;5276;157;2952;41.1533;20.1683;AL;3074579
Croatia;5224;145;4341;45.1;15.2;HR;4227746
Djibouti;5084;58;4999;11.8251;42.5903;DJ;921804
"Equatorial Guinea";4821;83;2182;1.6508;10.2679;GQ;836178
"Central African Republic";4608;59;1606;6.6111;20.9394;CF;5990855
Lebanon;4555;61;1761;33.8547;35.8623;LB;5469612
Hungary;4526;597;3364;47.1625;19.5033;HU;9771827
Greece;4477;206;1374;39.0742;21.8243;GR;10607051
Malawi;4078;114;1875;-13.254308;34.301525;MW;21196629
Maldives;3793;16;2607;3.2028;73.2207;MV;391904
Nicaragua;3672;116;2492;12.865416;-85.207229;NI;6203441
Libya;3621;74;618;26.3351;17.228331;LY;6679000
"Hong Kong";3397;31;1858;22.3;114.2;HK;7249907
Thailand;3312;58;3135;15.870032;100.992541;TH;68977400
Somalia;3212;93;1562;5.152149;46.199616;SO;11757124
"Congo (Brazzaville)";3200;54;829;-0.228;15.8277;CD;5293070
Zimbabwe;3169;67;1004;-19.015438;29.154857;ZW;14546314
Montenegro;3073;48;1005;42.708678;19.37439;ME;609859
"Sri Lanka";2815;11;2439;7.873054;80.771797;LK;22889201
Eswatini;2648;41;1214;-26.5225;31.4659;SZ;1104479
Cuba;2608;87;2355;21.521757;-77.781167;CU;11059062
Mali;2535;124;1937;17.570692;-3.996166;ML;19553397
"Cabo Verde";2451;23;1824;16.5388;-23.0418;CV;583255
Slovakia;2337;29;1742;48.669;19.699;SK;5440602
"South Sudan";2322;46;1175;6.877;31.307;SS;10561244
Slovenia;2171;119;1821;46.1512;14.9955;SI;2102678
Namibia;2129;10;166;-22.9576;18.4904;NA;2630073
Lithuania;2093;80;1644;55.1694;23.8813;LT;2731464
Estonia;2072;69;1934;58.5953;25.0136;EE;1228624
Rwanda;2022;5;1106;-1.9403;29.8739;RW;12712431
Guinea-Bissau;1981;26;803;11.8037;-15.1804;GW;2065173
Iceland;1893;10;1825;64.9631;-19.0208;IS;350734
Mozambique;1864;11;641;-18.665695;35.529562;MZ;30098197
"Sierra Leone";1823;67;1362;8.460555;-11.779889;SL;6624933
Benin;1805;36;1036;9.3077;2.3158;BJ;12864634
Yemen;1728;493;862;15.552727;48.516388;YE;29884405
Suriname;1706;26;1123;3.9193;-56.0278;SR;609569
"New Zealand";1562;22;1518;-40.9006;174.886;NZ;4925477
Tunisia;1535;50;1195;33.886917;9.537499;TN;11721177
Uruguay;1264;35;994;-32.5228;-55.7658;UY;3387605
Latvia;1238;32;1052;56.8796;24.6032;LV;1881232
Jordan;1193;11;1084;31.24;36.51;JO;10820644
Liberia;1186;75;670;6.428055;-9.429499;LR;5073296
Uganda;1176;4;1045;1.373333;32.290275;UG;43252966
Georgia;1171;17;947;42.3154;43.3569;GE;3997000
Angola;1148;52;437;-11.2027;17.8739;AO;32522339
Niger;1134;69;1028;17.607789;8.081666;NE;22772361
Cyprus;1114;19;852;35.1264;33.4299;CY;1266676
"Burkina Faso";1106;53;935;12.2383;-1.5616;BF;20835401
Togo;941;19;641;8.6195;0.8248;TG;8608444
Chad;936;75;813;15.4542;18.7322;TD;16877357
Andorra;925;52;807;42.5063;1.5218;AD;77000
Jamaica;878;10;726;18.1096;-77.2975;JM;2808570
"Sao Tome and Principe";871;15;778;0.18636;6.613081;ST;211122
Malta;845;9;665;35.9375;14.3754;MT;457267
Botswana;804;2;63;-22.3285;24.6849;BW;2317233
Syria;757;43;237;34.802075;38.996815;SY;19398448
"Diamond Princess";712;14;651;35.4437;139.6380;OT;3711
"San Marino";699;42;657;43.9424;12.4578;SM;34232
Lesotho;604;13;144;-29.609988;28.233608;LS;1969334
Vietnam;586;3;373;14.058324;108.277199;VN;98721275
Bahamas;574;14;91;25.025885;-78.035889;BS;337721
Tanzania;509;21;183;-6.369028;34.888822;TZ;58552845
Gambia;498;9;68;13.4432;-15.3101;GM;2173999
Taiwan*;467;7;440;23.7;121;TW;23603049
Guyana;413;20;185;4.860416;-58.93018;GY;750204
Burundi;387;1;304;-3.3731;29.9189;BI;11865821
Comoros;378;7;330;-11.6455;43.3333;KM;846281
Guam;356;5;0;13.4443;144.7937;GU;168485
Burma;353;6;296;21.9162;95.956;MM;56590071
Mauritius;344;10;332;-20.348404;57.552152;MU;1379365
"Isle of Man";336;24;312;54.2361;-4.5481;IM;90499
Mongolia;291;0;230;46.8625;103.8467;MN;3168026
Eritrea;279;0;225;15.1794;39.7823;ER;6081196
Cambodia;239;0;164;11.55;104.9167;KH;16926984
"Faroe Islands";225;0;189;61.8926;-6.9118;FO;51628
"Cayman Islands";203;1;202;19.3133;-81.2546;KY;61944
Gibraltar;188;0;182;36.1408;-5.3536;GI;29581
"Trinidad and Tobago";169;8;132;10.6918;-61.2225;TT;1208789
Bermuda;156;9;141;32.3078;-64.7505;BM;71750
Brunei;141;3;138;4.5353;114.7277;BN;464478
"Sint Maarten";128;15;64;18.0425;-63.0548;SX;32556
Aruba;121;3;105;12.5211;-69.9683;AW;119428
Monaco;120;4;105;43.7333;7.4167;MC;39000
Seychelles;114;0;39;-4.6796;55.492;SC;95981
"Turks and Caicos Islands";114;2;38;21.694;-71.7979;TC;55926
Barbados;110;7;96;13.1939;-59.5432;BB;294560
Bhutan;101;0;89;27.5142;90.4336;BT;782318
"Antigua and Barbuda";91;3;67;17.0608;-61.7964;AG;98179
Liechtenstein;88;1;85;47.14;9.55;LI;39137
"Papua New Guinea";72;2;11;-6.314993;143.95555;PG;7259456
"French Polynesia";62;0;62;-17.6797;-149.4068;PF;295121
"Saint Vincent and the Grenadines";54;0;44;12.9843;-61.2872;VC;101390
Belize;48;2;30;17.1899;-88.4976;BZ;374681
Macau;46;0;46;22.1667;113.55;MO;614458
Curacao;29;1;24;12.1696;-68.99;CW;151345
Fiji;27;1;18;-17.7134;178.065;FJ;935974
"Saint Lucia";25;0;22;13.9094;-60.9789;LC;166487
Timor-Leste;24;0;24;-8.874217;125.727539;TL;1383723
Grenada;24;0;23;12.1165;-61.679;GD;113094
"New Caledonia";22;0;22;-20.904305;165.618042;NC;290009
Laos;20;0;19;19.85627;102.495496;LA;7447396
Dominica;18;0;18;15.415;-61.371;DM;74243
"Saint Kitts and Nevis";17;0;16;17.357822;-62.782998;KN;55345
Greenland;14;0;13;71.7069;-42.6043;GL;57616
"Falkland Islands (Malvinas)";13;0;13;-51.7963;-59.5236;FK;3198
Montserrat;12;1;10;16.742498;-62.187366;MS;5373
"Holy See";12;0;12;41.9029;12.4534;VA;1000
"Western Sahara";10;1;8;24.2155;-12.8858;EH;652271
"Saint Barthelemy";8;0;6;17.9;-62.8333;BL;7122
"British Virgin Islands";8;1;7;18.4207;-64.64;VG;31196
"Saint Pierre and Miquelon";4;0;1;46.8852;-56.3159;PM;5347
Anguilla;3;0;3;18.2206;-63.0686;AI;18090
"American Samoa";0;0;0;-14.271;-170.132;AS;49437
