Country;"Confirmed Cases";Deaths;Recovered;Latitude;Longitude;"Country Code";Size
US;2939382;130268;924148;44.693947;-69.381927;US;332639102
Brazil;1623284;65487;1062542;-10.1753;-48.2982;BR;211715973
India;719664;20159;439934;23.814082;87.979803;IN;1326093247
Russia;693215;10478;463103;52.248521;115.956325;RU;141722205
Peru;305703;10772;197619;-9.621718;-73.444929;PE;31914989
Chile;298557;6384;264378;-33.0472;-71.6127;CL;18186770
"United Kingdom";286345;44283;512;52.1307;-3.7837;GB;65761117
Mexico;261750;31119;204826;22.7709;-102.5832;MX;128649565
Spain;251789;28388;150376;42.9896;-2.6189;ES;50015792
Iran;245688;11931;207000;32.427908;53.688046;IR;84923314
Italy;241819;34869;192241;45.43490485;12.33845213;IT;62402659
Pakistan;234509;4839;134957;26.009446;68.776807;PK;233500636
"Saudi Arabia";217108;2017;154839;23.885942;45.079162;SA;34173498
Turkey;206844;5241;182995;38.9637;35.2433;TR;82017514
"South Africa";205721;3310;97848;-30.5595;22.9375;ZA;56463617
France;205507;29923;77356;46.2276;2.2137;FR;67848156
Germany;198234;9031;182609;51.011;10.8453;DE;80159662
Bangladesh;168645;2151;78102;23.685;90.3563;BD;162650853
Colombia;117412;4305;47961;4.4234;-69.2878;CO;49084841
Canada;107815;8747;71141;64.2823;-135;CA;37694085
Qatar;100945;134;94903;25.3548;51.1839;QA;2444174
China;83558;4634;78523;29.1832;120.0934;CN;1394015977
Argentina;80447;1602;30095;-38.4161;-63.6167;AR;45479118
Egypt;76222;3422;21238;26.820553;30.802498;EG;104124440
Sweden;73344;5447;0;58.2528;13.0596;SE;10202491
Indonesia;66226;3309;30785;-0.7893;113.9213;ID;267026366
Belarus;64003;436;51902;53.7098;27.9534;BY;9477918
Ecuador;62380;4821;28872;-1.8312;-78.1834;EC;16904867
Iraq;62275;2567;34741;33.223191;43.679291;IQ;38872655
Belgium;62058;9774;17122;50.8333;4.469936;BE;11720716
"United Arab Emirates";52600;326;41714;23.424076;53.847818;AE;9992083
Kuwait;51245;377;41515;29.31166;47.481766;KW;2993706
Netherlands;50701;6132;7;52.1326;5.2913;NL;17280397
Ukraine;50622;1299;22970;50.2547;28.6587;UA;43922939
Kazakhstan;49683;264;16298;48.0196;66.9237;KZ;19091949
Oman;48997;224;31000;21.512583;55.923255;OM;4664844
Philippines;47873;1309;12386;12.879721;121.774017;PH;109180815
Singapore;45140;26;40717;1.2833;103.8333;SG;6209660
Portugal;44416;1629;29445;39.3999;-8.2245;PT;10302674
Bolivia;40509;1476;11929;-16.2902;-63.5887;BO;11639909
Panama;39334;770;18036;8.538;-80.7821;PA;3894082
"Dominican Republic";38128;804;19489;18.7357;-70.1627;DO;10499707
Poland;36412;1528;24238;51.9194;19.1451;PL;38282325
Afghanistan;33384;920;20179;33.93911;67.709953;AF;36643815
Switzerland;32369;1966;29300;46.8182;8.2275;CH;8403994
Israel;31271;338;18131;31.046051;34.851612;IL;8675475
Bahrain;29821;98;25178;26.0275;50.55;BH;1505003
Romania;29620;1799;20534;45.9432;24.9668;RO;21302893
Nigeria;29286;654;11828;9.082;8.6753;NG;214028302
Armenia;29285;503;16907;40.0691;45.0382;AM;3021324
Ireland;25531;1741;23364;53.1424;-7.6921;IE;5176569
Honduras;24665;656;2585;15.2;-86.2419;HN;9235340
Guatemala;23972;981;3429;15.7835;-90.2308;GT;17153288
Ghana;21077;129;16070;7.9465;-1.0232;GH;29340248
Azerbaijan;20837;258;12182;40.1431;47.5769;AZ;10205810
Japan;20054;980;17057;35.612364;138.611489;JP;125507472
Austria;18421;706;16686;47.5162;14.5501;AT;8859449
Moldova;17906;598;11241;47.4116;28.3699;MD;3364496
Serbia;16719;330;13447;44.0165;21.0059;RS;7012165
Algeria;16404;959;11884;28.0339;1.6596;DZ;42972878
Nepal;16168;35;7499;28.1667;84.25;NP;30327877
Cameroon;14916;359;11525;3.848;11.5021;CM;27744989
Morocco;14565;239;10281;31.7917;-7.0926;MA;35561654
"Korea, South";13181;285;11914;35.907757;127.766922;KR;51835110
Denmark;12888;609;11983;56.2639;9.5018;DK;5869410
Czechia;12566;350;7873;49.8175;15.473;CZ;10702498
"Cote d'Ivoire";10966;75;5384;7.54;-5.5471;CI;27481086
Uzbekistan;10587;39;6690;41.377491;64.585262;UZ;30565411
Sudan;9894;616;4899;12.8628;30.2176;SD;45561556
Norway;8936;251;8138;60.472;8.4689;NO;5467439
Australia;8755;106;7455;-31.9505;115.8605;AU;25466459
"Puerto Rico";8714;157;0;18.2208;-66.5901;PR;3189068
Malaysia;8674;121;8481;4.210484;101.975766;MY;32652083
"El Salvador";8307;229;4929;13.7942;-88.8965;SV;6481102
Kenya;8250;167;2504;-0.0236;37.9062;KE;53527936
Kyrgyzstan;8141;99;2916;41.20438;74.766098;KG;5964897
Senegal;7547;137;5023;14.4974;-14.4524;SN;15736368
"Congo (Kinshasa)";7432;182;3226;-4.0383;21.7587;CG;101780263
Venezuela;7411;68;2100;6.4238;-66.5897;VE;28644603
Finland;7262;329;6700;61.92411;25.748151;FI;5571665
"North Macedonia";7244;351;3324;41.6086;21.7453;MK;2125971
Haiti;6371;113;1824;18.9712;-72.2852;HT;11067777
Tajikistan;6262;53;4914;38.861034;71.276093;TJ;8873669
Bulgaria;5914;250;3000;42.7339;25.4858;BG;6966899
Ethiopia;5846;103;2430;9.145;40.4897;ET;108113150
Gabon;5743;46;2574;-0.8037;11.6094;GA;2230908
"Bosnia and Herzegovina";5621;207;2693;43.9159;17.6791;BA;3835586
Guinea;5610;34;4522;9.9456;-9.6966;GN;12527440
"Costa Rica";5241;23;1776;9.7489;-83.7534;CR;5097988
Mauritania;4948;133;1896;21.0079;-10.9408;MR;4005475
Djibouti;4878;55;4621;11.8251;42.5903;DJ;921804
Luxembourg;4542;110;4016;49.8153;6.1296;LU;628381
Hungary;4205;589;2874;47.1625;19.5033;HU;9771827
"Central African Republic";4033;52;970;6.6111;20.9394;CF;5990855
Kosovo;3703;79;1946;42.602636;20.902977;XK;1932774
Greece;3562;192;1374;39.0742;21.8243;GR;10607051
Madagascar;3472;33;1187;-18.766947;46.869107;MG;26955737
Croatia;3272;113;2229;45.1;15.2;HR;4227746
Thailand;3195;58;3072;15.870032;100.992541;TH;68977400
"Equatorial Guinea";3071;51;842;1.6508;10.2679;GQ;836178
Albania;3038;81;1744;41.1533;20.1683;AL;3074579
Somalia;3006;92;1051;5.152149;46.199616;SO;11757124
Nicaragua;2519;83;1238;12.865416;-85.207229;NI;6203441
Maldives;2491;12;2113;3.2028;73.2207;MV;391904
Paraguay;2456;20;1180;-23.4425;-58.4438;PY;7191685
Cuba;2380;86;2234;21.521757;-77.781167;CU;11059062
Mali;2331;119;1547;17.570692;-3.996166;ML;19553397
"Sri Lanka";2080;11;1955;7.873054;80.771797;LK;22889201
"South Sudan";2021;38;333;6.877;31.307;SS;10561244
Estonia;1995;69;1880;58.5953;25.0136;EE;1228624
Lebanon;1885;36;1311;33.8547;35.8623;LB;5469612
Iceland;1873;10;1847;64.9631;-19.0208;IS;350734
Lithuania;1844;79;1547;55.1694;23.8813;LT;2731464
Malawi;1818;19;317;-13.254308;34.301525;MW;21196629
Guinea-Bissau;1790;25;760;11.8037;-15.1804;GW;2065173
Slovakia;1767;28;1473;48.669;19.699;SK;5440602
Slovenia;1739;111;1423;46.1512;14.9955;SI;2102678
Zambia;1632;30;1348;-13.133897;27.849332;ZM;17426623
"Congo (Brazzaville)";1557;44;501;-0.228;15.8277;CD;5293070
"Sierra Leone";1547;62;1086;8.460555;-11.779889;SL;6624933
"New Zealand";1536;22;1492;-40.9006;174.886;NZ;4925477
"Cabo Verde";1463;17;722;16.5388;-23.0418;CV;583255
"Hong Kong";1285;7;1157;22.3;114.2;HK;7249907
Yemen;1284;345;575;15.552727;48.516388;YE;29884405
Tunisia;1199;50;1049;33.886917;9.537499;TN;11721177
Benin;1199;21;333;9.3077;2.3158;BJ;12864634
Jordan;1167;10;957;31.24;36.51;JO;10820644
Latvia;1134;30;1008;56.8796;24.6032;LV;1881232
Libya;1117;34;269;26.3351;17.228331;LY;6679000
Rwanda;1113;3;575;-1.9403;29.8739;RW;12712431
Niger;1093;68;968;17.607789;8.081666;NE;22772361
Mozambique;1012;8;277;-18.665695;35.529562;MZ;30098197
Eswatini;1011;13;564;-26.5225;31.4659;SZ;1104479
Cyprus;1004;19;839;35.1264;33.4299;CY;1266676
"Burkina Faso";1003;53;860;12.2383;-1.5616;BF;20835401
Uganda;971;0;896;1.373333;32.290275;UG;43252966
Uruguay;960;29;858;-32.5228;-55.7658;UY;3387605
Georgia;958;15;838;42.3154;43.3569;GE;3997000
Liberia;891;39;377;6.428055;-9.429499;LR;5073296
Chad;872;74;787;15.4542;18.7322;TD;16877357
Andorra;855;52;800;42.5063;1.5218;AD;77000
Montenegro;841;16;315;42.708678;19.37439;ME;609859
Jamaica;737;10;591;18.1096;-77.2975;JM;2808570
Zimbabwe;734;9;197;-19.015438;29.154857;ZW;14546314
"Sao Tome and Principe";721;13;269;0.18636;6.613081;ST;211122
"Diamond Princess";712;14;651;35.4437;139.6380;OT;3711
"San Marino";698;42;656;43.9424;12.4578;SM;34232
Togo;680;15;450;8.6195;0.8248;TG;8608444
Malta;673;9;653;35.9375;14.3754;MT;457267
Suriname;614;14;315;3.9193;-56.0278;SR;609569
Namibia;539;0;25;-22.9576;18.4904;NA;2630073
Tanzania;509;21;183;-6.369028;34.888822;TZ;58552845
Taiwan*;449;7;438;23.7;121;TW;23603049
Syria;372;14;126;34.802075;38.996815;SY;19398448
Vietnam;369;0;341;14.058324;108.277199;VN;98721275
Angola;346;19;108;-11.2027;17.8739;AO;32522339
Mauritius;342;10;330;-20.348404;57.552152;MU;1379365
"Isle of Man";336;24;312;54.2361;-4.5481;IM;90499
Burma;316;6;245;21.9162;95.956;MM;56590071
Botswana;314;1;31;-22.3285;24.6849;BW;2317233
Comoros;311;7;266;-11.6455;43.3333;KM;846281
Guam;301;5;0;13.4443;144.7937;GU;168485
Guyana;273;15;120;4.860416;-58.93018;GY;750204
Mongolia;225;0;194;46.8625;103.8467;MN;3168026
Eritrea;215;0;56;15.1794;39.7823;ER;6081196
"Cayman Islands";201;1;194;19.3133;-81.2546;KY;61944
Burundi;191;1;118;-3.3731;29.9189;BI;11865821
"Faroe Islands";188;0;188;61.8926;-6.9118;FO;51628
Gibraltar;179;0;176;36.1408;-5.3536;GI;29581
Bermuda;146;9;137;32.3078;-64.7505;BM;71750
Brunei;141;3;138;4.5353;114.7277;BN;464478
Cambodia;141;0;131;11.55;104.9167;KH;16926984
"Trinidad and Tobago";133;8;117;10.6918;-61.2225;TT;1208789
Monaco;108;4;95;43.7333;7.4167;MC;39000
Aruba;105;3;98;12.5211;-69.9683;AW;119428
Bahamas;104;11;89;25.025885;-78.035889;BS;337721
Barbados;98;7;90;13.1939;-59.5432;BB;294560
Lesotho;91;0;11;-29.609988;28.233608;LS;1969334
Liechtenstein;84;1;81;47.14;9.55;LI;39137
Seychelles;81;0;11;-4.6796;55.492;SC;95981
Bhutan;80;0;54;27.5142;90.4336;BT;782318
"Sint Maarten";78;15;63;18.0425;-63.0548;SX;32556
"Antigua and Barbuda";70;3;23;17.0608;-61.7964;AG;98179
"French Polynesia";62;0;60;-17.6797;-149.4068;PF;295121
Gambia;61;3;27;13.4432;-15.3101;GM;2173999
"Turks and Caicos Islands";49;2;11;21.694;-71.7979;TC;55926
Macau;46;0;45;22.1667;113.55;MO;614458
Belize;30;2;19;17.1899;-88.4976;BZ;374681
"Saint Vincent and the Grenadines";29;0;29;12.9843;-61.2872;VC;101390
Timor-Leste;24;0;24;-8.874217;125.727539;TL;1383723
Curacao;23;1;19;12.1696;-68.99;CW;151345
Grenada;23;0;23;12.1165;-61.679;GD;113094
"Saint Lucia";22;0;19;13.9094;-60.9789;LC;166487
Fiji;21;0;18;-17.7134;178.065;FJ;935974
"New Caledonia";21;0;21;-20.904305;165.618042;NC;290009
Laos;19;0;19;19.85627;102.495496;LA;7447396
Dominica;18;0;18;15.415;-61.371;DM;74243
"Saint Kitts and Nevis";16;0;15;17.357822;-62.782998;KN;55345
"Falkland Islands (Malvinas)";13;0;13;-51.7963;-59.5236;FK;3198
Greenland;13;0;13;71.7069;-42.6043;GL;57616
"Holy See";12;0;12;41.9029;12.4534;VA;1000
"Papua New Guinea";11;0;8;-6.314993;143.95555;PG;7259456
Montserrat;11;1;10;16.742498;-62.187366;MS;5373
"Western Sahara";10;1;8;24.2155;-12.8858;EH;652271
"British Virgin Islands";8;1;7;18.4207;-64.64;VG;31196
"Saint Barthelemy";6;0;6;17.9;-62.8333;BL;7122
Anguilla;3;0;3;18.2206;-63.0686;AI;18090
"Saint Pierre and Miquelon";1;0;1;46.8852;-56.3159;PM;5347
"American Samoa";0;0;0;-14.271;-170.132;AS;49437
