Country;"Confirmed Cases";Deaths;Recovered;Latitude;Longitude;"Country Code";Size
US;3481244;137101;1075882;44.693947;-69.381927;US;332639102
Brazil;1966748;75366;1350098;-10.1753;-48.2982;BR;211715973
India;936181;24309;592032;23.814082;87.979803;IN;1326093247
Russia;745197;11753;522375;52.248521;115.956325;RU;141722205
Peru;337751;12417;226400;-9.621718;-73.444929;PE;31914989
Chile;321205;7186;292085;-33.0472;-71.6127;CL;18186770
Mexico;311486;36327;245830;22.7709;-102.5832;MX;128649565
"South Africa";311049;4453;160693;-30.5595;22.9375;ZA;56463617
"United Kingdom";292492;45100;512;52.1307;-3.7837;GB;65761117
Iran;264561;13410;227561;32.427908;53.688046;IR;84923314
Spain;257494;28413;150376;42.9896;-2.6189;ES;50015792
Pakistan;255769;5386;172810;26.009446;68.776807;PK;233500636
Italy;243506;34997;196016;45.43490485;12.33845213;IT;62402659
"Saudi Arabia";240474;2325;183048;23.885942;45.079162;SA;34173498
Turkey;215940;5419;197733;38.9637;35.2433;TR;82017514
France;210476;30123;78857;46.2276;2.2137;FR;67848156
Germany;200890;9080;186000;51.011;10.8453;DE;80159662
Bangladesh;193590;2457;105523;23.685;90.3563;BD;162650853
Colombia;159898;5969;68806;4.4234;-69.2878;CO;49084841
Canada;110589;8848;73916;64.2823;-135;CA;37694085
Argentina;106910;1987;47298;-38.4161;-63.6167;AR;45479118
Qatar;104983;151;101637;25.3548;51.1839;QA;2444174
Egypt;84843;4067;26135;26.820553;30.802498;EG;104124440
Iraq;83867;3432;52621;33.223191;43.679291;IQ;38872655
China;83611;4634;78693;29.1832;120.0934;CN;1394015977
Indonesia;80094;3797;39050;-0.7893;113.9213;ID;267026366
Sweden;76492;5572;0;58.2528;13.0596;SE;10202491
Ecuador;70329;5158;30641;-1.8312;-78.1834;EC;16904867
Belarus;65443;480;56379;53.7098;27.9534;BY;9477918
Kazakhstan;63514;375;38008;48.0196;66.9237;KZ;19091949
Belgium;62872;9788;17242;50.8333;4.469936;BE;11720716
Oman;61247;281;39038;21.512583;55.923255;OM;4664844
Philippines;58850;1614;20976;12.879721;121.774017;PH;109180815
Kuwait;56877;399;46897;29.31166;47.481766;KW;2993706
Ukraine;56779;1444;29005;50.2547;28.6587;UA;43922939
"United Arab Emirates";55848;335;46418;23.424076;53.847818;AE;9992083
Netherlands;51261;6136;7;52.1326;5.2913;NL;17280397
Bolivia;50867;1898;15819;-16.2902;-63.5887;BO;11639909
Panama;48096;960;24667;8.538;-80.7821;PA;3894082
"Dominican Republic";47671;929;23459;18.7357;-70.1627;DO;10499707
Portugal;47426;1676;32110;39.3999;-8.2245;PT;10302674
Singapore;46878;27;42988;1.2833;103.8333;SG;6209660
Israel;44188;376;19989;31.046051;34.851612;IL;8675475
Poland;38721;1594;28492;51.9194;19.1451;PL;38282325
Afghanistan;34994;1094;22456;33.93911;67.709953;AF;36643815
Bahrain;34560;117;30320;26.0275;50.55;BH;1505003
Nigeria;34259;760;13999;9.082;8.6753;NG;214028302
Romania;34226;1952;22049;45.9432;24.9668;RO;21302893
Switzerland;33148;1968;29800;46.8182;8.2275;CH;8403994
Armenia;33005;592;21348;40.0691;45.0382;AM;3021324
Guatemala;32074;1350;4624;15.7835;-90.2308;GT;17153288
Honduras;29106;807;3287;15.2;-86.2419;HN;9235340
Ireland;25683;1748;23364;53.1424;-7.6921;IE;5176569
Azerbaijan;25672;326;16695;40.1431;47.5769;AZ;10205810
Ghana;25430;139;21511;7.9465;-1.0232;GH;29340248
Japan;22880;984;18126;35.612364;138.611489;JP;125507472
Algeria;20770;1040;14792;28.0339;1.6596;DZ;42972878
Moldova;20040;659;13298;47.4116;28.3699;MD;3364496
Serbia;19334;429;14047;44.0165;21.0059;RS;7012165
Austria;19154;710;17175;47.5162;14.5501;AT;8859449
Nepal;17177;39;11025;28.1667;84.25;NP;30327877
Morocco;16262;259;13821;31.7917;-7.0926;MA;35561654
Cameroon;15173;359;11928;3.848;11.5021;CM;27744989
Uzbekistan;14581;71;8655;41.377491;64.585262;UZ;30565411
"Korea, South";13551;289;12348;35.907757;127.766922;KR;51835110
Czechia;13475;355;8507;49.8175;15.473;CZ;10702498
"Cote d'Ivoire";13403;87;7146;7.54;-5.5471;CI;27481086
Denmark;13092;610;12182;56.2639;9.5018;DK;5869410
Kyrgyzstan;11977;160;3660;41.20438;74.766098;KG;5964897
Kenya;11252;209;3068;-0.0236;37.9062;KE;53527936
"El Salvador";10645;286;6120;13.7942;-88.8965;SV;6481102
Sudan;10527;668;5601;12.8628;30.2176;SD;45561556
Australia;10495;111;7928;-31.9505;115.8605;AU;25466459
"Puerto Rico";10379;171;0;18.2208;-66.5901;PR;3189068
Venezuela;10010;96;2671;6.4238;-66.5897;VE;28644603
Norway;9011;253;8138;60.472;8.4689;NO;5467439
"Costa Rica";8986;40;2551;9.7489;-83.7534;CR;5097988
Malaysia;8734;122;8526;4.210484;101.975766;MY;32652083
"North Macedonia";8530;393;4565;41.6086;21.7453;MK;2125971
Senegal;8369;153;5605;14.4974;-14.4524;SN;15736368
Ethiopia;8181;146;2430;9.145;40.4897;ET;108113150
"Congo (Kinshasa)";8163;192;3983;-4.0383;21.7587;CG;101780263
Bulgaria;7877;289;3841;42.7339;25.4858;BG;6966899
"Bosnia and Herzegovina";7411;235;3335;43.9159;17.6791;BA;3835586
Finland;7296;328;6880;61.92411;25.748151;FI;5571665
Haiti;6831;143;3283;18.9712;-72.2852;HT;11067777
Tajikistan;6695;56;5383;38.861034;71.276093;TJ;8873669
Guinea;6276;38;4981;9.9456;-9.6966;GN;12527440
Gabon;6121;46;3664;-0.8037;11.6094;GA;2230908
Madagascar;5605;43;2811;-18.766947;46.869107;MG;26955737
Mauritania;5518;147;2664;21.0079;-10.9408;MR;4005475
Kosovo;5237;112;2462;42.602636;20.902977;XK;1932774
Luxembourg;5122;111;4247;49.8153;6.1296;LU;628381
Djibouti;4985;56;4765;11.8251;42.5903;DJ;921804
"Central African Republic";4362;53;1261;6.6111;20.9394;CF;5990855
Hungary;4263;595;3126;47.1625;19.5033;HU;9771827
Croatia;3953;120;2629;45.1;15.2;HR;4227746
Greece;3910;193;1374;39.0742;21.8243;GR;10607051
Albania;3752;101;2091;41.1533;20.1683;AL;3074579
Thailand;3232;58;3092;15.870032;100.992541;TH;68977400
Paraguay;3198;25;1338;-23.4425;-58.4438;PY;7191685
Nicaragua;3147;99;2282;12.865416;-85.207229;NI;6203441
Somalia;3083;93;1425;5.152149;46.199616;SO;11757124
"Equatorial Guinea";3071;51;842;1.6508;10.2679;GQ;836178
Maldives;2831;14;2321;3.2028;73.2207;MV;391904
"Sri Lanka";2671;11;2001;7.873054;80.771797;LK;22889201
Malawi;2614;43;1005;-13.254308;34.301525;MW;21196629
Lebanon;2542;38;1455;33.8547;35.8623;LB;5469612
Cuba;2438;87;2277;21.521757;-77.781167;CU;11059062
Mali;2433;121;1764;17.570692;-3.996166;ML;19553397
"Congo (Brazzaville)";2222;47;589;-0.228;15.8277;CD;5293070
"South Sudan";2153;41;1175;6.877;31.307;SS;10561244
Estonia;2016;69;1901;58.5953;25.0136;EE;1228624
Slovakia;1927;28;1507;48.669;19.699;SK;5440602
Iceland;1911;10;1885;64.9631;-19.0208;IS;350734
Zambia;1895;42;1412;-13.133897;27.849332;ZM;17426623
Lithuania;1882;79;1582;55.1694;23.8813;LT;2731464
Slovenia;1878;111;1501;46.1512;14.9955;SI;2102678
Guinea-Bissau;1842;26;773;11.8037;-15.1804;GW;2065173
"Cabo Verde";1780;19;850;16.5388;-23.0418;CV;583255
"Sierra Leone";1651;64;1190;8.460555;-11.779889;SL;6624933
Libya;1589;43;373;26.3351;17.228331;LY;6679000
"Hong Kong";1588;8;1229;22.3;114.2;HK;7249907
"New Zealand";1547;22;1498;-40.9006;174.886;NZ;4925477
Yemen;1526;433;694;15.552727;48.516388;YE;29884405
Rwanda;1435;4;752;-1.9403;29.8739;RW;12712431
Eswatini;1434;20;695;-26.5225;31.4659;SZ;1104479
Benin;1378;26;557;9.3077;2.3158;BJ;12864634
Mozambique;1330;9;375;-18.665695;35.529562;MZ;30098197
Tunisia;1319;50;1091;33.886917;9.537499;TN;11721177
Montenegro;1287;24;330;42.708678;19.37439;ME;609859
Jordan;1201;10;1016;31.24;36.51;JO;10820644
Latvia;1178;31;1022;56.8796;24.6032;LV;1881232
Niger;1099;68;992;17.607789;8.081666;NE;22772361
Zimbabwe;1089;20;395;-19.015438;29.154857;ZW;14546314
Uganda;1043;0;1004;1.373333;32.290275;UG;43252966
"Burkina Faso";1037;53;882;12.2383;-1.5616;BF;20835401
Cyprus;1025;19;839;35.1264;33.4299;CY;1266676
Liberia;1024;51;439;6.428055;-9.429499;LR;5073296
Georgia;1004;15;873;42.3154;43.3569;GE;3997000
Uruguay;997;31;905;-32.5228;-55.7658;UY;3387605
Namibia;960;2;31;-22.9576;18.4904;NA;2630073
Chad;885;75;799;15.4542;18.7322;TD;16877357
Andorra;861;52;803;42.5063;1.5218;AD;77000
Suriname;837;18;573;3.9193;-56.0278;SR;609569
Jamaica;762;10;643;18.1096;-77.2975;JM;2808570
Togo;740;15;534;8.6195;0.8248;TG;8608444
"Sao Tome and Principe";732;14;286;0.18636;6.613081;ST;211122
"Diamond Princess";712;14;651;35.4437;139.6380;OT;3711
"San Marino";699;42;656;43.9424;12.4578;SM;34232
Malta;674;9;661;35.9375;14.3754;MT;457267
Angola;576;27;124;-11.2027;17.8739;AO;32522339
Tanzania;509;21;183;-6.369028;34.888822;TZ;58552845
Syria;458;22;140;34.802075;38.996815;SY;19398448
Taiwan*;451;7;440;23.7;121;TW;23603049
Botswana;399;1;38;-22.3285;24.6849;BW;2317233
Vietnam;381;0;353;14.058324;108.277199;VN;98721275
Mauritius;342;10;330;-20.348404;57.552152;MU;1379365
Burma;337;6;266;21.9162;95.956;MM;56590071
"Isle of Man";336;24;312;54.2361;-4.5481;IM;90499
Comoros;321;7;302;-11.6455;43.3333;KM;846281
Guam;313;5;0;13.4443;144.7937;GU;168485
Guyana;308;17;156;4.860416;-58.93018;GY;750204
Burundi;269;1;207;-3.3731;29.9189;BI;11865821
Mongolia;261;0;207;46.8625;103.8467;MN;3168026
Lesotho;256;3;48;-29.609988;28.233608;LS;1969334
Eritrea;232;0;107;15.1794;39.7823;ER;6081196
"Cayman Islands";203;1;200;19.3133;-81.2546;KY;61944
"Faroe Islands";188;0;188;61.8926;-6.9118;FO;51628
Gibraltar;180;0;180;36.1408;-5.3536;GI;29581
Cambodia;165;0;133;11.55;104.9167;KH;16926984
Bermuda;150;9;137;32.3078;-64.7505;BM;71750
Brunei;141;3;138;4.5353;114.7277;BN;464478
"Trinidad and Tobago";133;8;124;10.6918;-61.2225;TT;1208789
Bahamas;119;11;91;25.025885;-78.035889;BS;337721
Monaco;109;4;97;43.7333;7.4167;MC;39000
Aruba;106;3;99;12.5211;-69.9683;AW;119428
Barbados;104;7;90;13.1939;-59.5432;BB;294560
Seychelles;100;0;27;-4.6796;55.492;SC;95981
Bhutan;84;0;78;27.5142;90.4336;BT;782318
Liechtenstein;84;1;81;47.14;9.55;LI;39137
"Sint Maarten";78;15;63;18.0425;-63.0548;SX;32556
"Antigua and Barbuda";74;3;57;17.0608;-61.7964;AG;98179
"Turks and Caicos Islands";72;2;12;21.694;-71.7979;TC;55926
Gambia;64;3;34;13.4432;-15.3101;GM;2173999
"French Polynesia";62;0;60;-17.6797;-149.4068;PF;295121
Macau;46;0;45;22.1667;113.55;MO;614458
Belize;39;2;21;17.1899;-88.4976;BZ;374681
"Saint Vincent and the Grenadines";35;0;29;12.9843;-61.2872;VC;101390
Fiji;26;0;18;-17.7134;178.065;FJ;935974
Curacao;26;1;24;12.1696;-68.99;CW;151345
Timor-Leste;24;0;24;-8.874217;125.727539;TL;1383723
Grenada;23;0;23;12.1165;-61.679;GD;113094
"Saint Lucia";22;0;19;13.9094;-60.9789;LC;166487
"New Caledonia";22;0;21;-20.904305;165.618042;NC;290009
Laos;19;0;19;19.85627;102.495496;LA;7447396
Dominica;18;0;18;15.415;-61.371;DM;74243
"Saint Kitts and Nevis";17;0;15;17.357822;-62.782998;KN;55345
"Falkland Islands (Malvinas)";13;0;13;-51.7963;-59.5236;FK;3198
Greenland;13;0;13;71.7069;-42.6043;GL;57616
Montserrat;12;1;10;16.742498;-62.187366;MS;5373
"Holy See";12;0;12;41.9029;12.4534;VA;1000
"Papua New Guinea";11;0;8;-6.314993;143.95555;PG;7259456
"Western Sahara";10;1;8;24.2155;-12.8858;EH;652271
"British Virgin Islands";8;1;7;18.4207;-64.64;VG;31196
"Saint Barthelemy";6;0;6;17.9;-62.8333;BL;7122
Anguilla;3;0;3;18.2206;-63.0686;AI;18090
"Saint Pierre and Miquelon";2;0;1;46.8852;-56.3159;PM;5347
"American Samoa";0;0;0;-14.271;-170.132;AS;49437
