Country;"Confirmed Cases";Deaths;Recovered;Latitude;Longitude;"Country Code";Size
US;3175275;133933;983185;44.693947;-69.381927;US;332639102
Brazil;1800827;70398;1217361;-10.1753;-48.2982;BR;211715973
India;820916;22123;515386;23.814082;87.979803;IN;1326093247
Russia;719449;11188;496594;52.248521;115.956325;RU;141722205
Peru;319646;11500;210638;-9.621718;-73.444929;PE;31914989
Chile;309274;6781;278053;-33.0472;-71.6127;CL;18186770
Mexico;289174;34191;225356;22.7709;-102.5832;MX;128649565
"United Kingdom";288710;44697;512;52.1307;-3.7837;GB;65761117
Spain;253908;28403;150376;42.9896;-2.6189;ES;50015792
Iran;252720;12447;215015;32.427908;53.688046;IR;84923314
"South Africa";250687;3860;118232;-30.5595;22.9375;ZA;56463617
Pakistan;246351;5123;153134;26.009446;68.776807;PK;233500636
Italy;242639;34938;194273;45.43490485;12.33845213;IT;62402659
"Saudi Arabia";226486;2151;163026;23.885942;45.079162;SA;34173498
Turkey;210965;5323;191883;38.9637;35.2433;TR;82017514
France;207924;30007;78425;46.2276;2.2137;FR;67848156
Germany;199592;9068;184228;51.011;10.8453;DE;80159662
Bangladesh;178443;2275;86406;23.685;90.3563;BD;162650853
Colombia;133973;4985;56272;4.4234;-69.2878;CO;49084841
Canada;108984;8810;72466;64.2823;-135;CA;37694085
Qatar;102630;146;98233;25.3548;51.1839;QA;2444174
Argentina;94060;1774;38984;-38.4161;-63.6167;AR;45479118
China;83581;4634;78590;29.1832;120.0934;CN;1394015977
Egypt;80235;3702;23274;26.820553;30.802498;EG;104124440
Sweden;74898;5526;0;58.2528;13.0596;SE;10202491
Iraq;72460;2960;41380;33.223191;43.679291;IQ;38872655
Indonesia;72347;3469;33529;-0.7893;113.9213;ID;267026366
Ecuador;65018;4939;29577;-1.8312;-78.1834;EC;16904867
Belarus;64604;454;54254;53.7098;27.9534;BY;9477918
Belgium;62469;9782;17196;50.8333;4.469936;BE;11720716
Kazakhstan;56455;264;32500;48.0196;66.9237;KZ;19091949
"United Arab Emirates";54050;330;43969;23.424076;53.847818;AE;9992083
Ukraine;53941;1389;26513;50.2547;28.6587;UA;43922939
Oman;53614;244;34225;21.512583;55.923255;OM;4664844
Kuwait;53580;383;43214;29.31166;47.481766;KW;2993706
Philippines;52914;1360;13230;12.879721;121.774017;PH;109180815
Netherlands;50847;6136;7;52.1326;5.2913;NL;17280397
Singapore;45783;26;41780;1.2833;103.8333;SG;6209660
Portugal;45679;1646;30350;39.3999;-8.2245;PT;10302674
Bolivia;45565;1702;13918;-16.2902;-63.5887;BO;11639909
Panama;43257;863;21426;8.538;-80.7821;PA;3894082
"Dominican Republic";41915;864;20830;18.7357;-70.1627;DO;10499707
Poland;37216;1562;26635;51.9194;19.1451;PL;38282325
Israel;36266;351;18613;31.046051;34.851612;IL;8675475
Afghanistan;34351;975;21105;33.93911;67.709953;AF;36643815
Switzerland;32690;1966;29400;46.8182;8.2275;CH;8403994
Bahrain;32039;104;27213;26.0275;50.55;BH;1505003
Armenia;31392;559;19419;40.0691;45.0382;AM;3021324
Romania;31381;1847;21129;45.9432;24.9668;RO;21302893
Nigeria;31323;709;12795;9.082;8.6753;NG;214028302
Guatemala;27619;1139;4024;15.7835;-90.2308;GT;17153288
Honduras;27053;750;2850;15.2;-86.2419;HN;9235340
Ireland;25589;1744;23364;53.1424;-7.6921;IE;5176569
Ghana;23834;135;19212;7.9465;-1.0232;GH;29340248
Azerbaijan;22990;292;14093;40.1431;47.5769;AZ;10205810
Japan;21265;982;17494;35.612364;138.611489;JP;125507472
Moldova;18924;635;12456;47.4116;28.3699;MD;3364496
Austria;18783;706;16864;47.5162;14.5501;AT;8859449
Algeria;18242;996;13124;28.0339;1.6596;DZ;42972878
Serbia;17728;370;13719;44.0165;21.0059;RS;7012165
Nepal;16649;35;8011;28.1667;84.25;NP;30327877
Morocco;15328;243;11827;31.7917;-7.0926;MA;35561654
Cameroon;14916;359;11525;3.848;11.5021;CM;27744989
"Korea, South";13373;288;12144;35.907757;127.766922;KR;51835110
Czechia;13062;352;8209;49.8175;15.473;CZ;10702498
Denmark;12946;609;12077;56.2639;9.5018;DK;5869410
Uzbekistan;12206;55;7530;41.377491;64.585262;UZ;30565411
"Cote d'Ivoire";12052;81;6080;7.54;-5.5471;CI;27481086
Sudan;10204;649;5277;12.8628;30.2176;SD;45561556
Kyrgyzstan;9910;125;3236;41.20438;74.766098;KG;5964897
Australia;9553;107;7733;-31.9505;115.8605;AU;25466459
Kenya;9448;181;2733;-0.0236;37.9062;KE;53527936
"El Salvador";9142;254;5454;13.7942;-88.8965;SV;6481102
"Puerto Rico";9137;159;0;18.2208;-66.5901;PR;3189068
Norway;8974;252;8138;60.472;8.4689;NO;5467439
Venezuela;8803;83;2671;6.4238;-66.5897;VE;28644603
Malaysia;8696;121;8511;4.210484;101.975766;MY;32652083
"Congo (Kinshasa)";7905;189;3513;-4.0383;21.7587;CG;101780263
Senegal;7882;145;5311;14.4974;-14.4524;SN;15736368
"North Macedonia";7777;368;3960;41.6086;21.7453;MK;2125971
Finland;7279;329;6800;61.92411;25.748151;FI;5571665
Ethiopia;7120;124;2430;9.145;40.4897;ET;108113150
Bulgaria;6964;267;3308;42.7339;25.4858;BG;6966899
"Costa Rica";6845;26;2110;9.7489;-83.7534;CR;5097988
Haiti;6617;135;2590;18.9712;-72.2852;HT;11067777
Tajikistan;6457;55;5115;38.861034;71.276093;TJ;8873669
"Bosnia and Herzegovina";6402;216;3037;43.9159;17.6791;BA;3835586
Guinea;5969;37;4732;9.9456;-9.6966;GN;12527440
Gabon;5942;46;3004;-0.8037;11.6094;GA;2230908
Mauritania;5203;146;2111;21.0079;-10.9408;MR;4005475
Djibouti;4968;56;4689;11.8251;42.5903;DJ;921804
Luxembourg;4777;110;4086;49.8153;6.1296;LU;628381
Kosovo;4307;94;2095;42.602636;20.902977;XK;1932774
"Central African Republic";4259;53;1142;6.6111;20.9394;CF;5990855
Hungary;4229;595;2974;47.1625;19.5033;HU;9771827
Madagascar;4143;34;2183;-18.766947;46.869107;MG;26955737
Greece;3732;193;1374;39.0742;21.8243;GR;10607051
Croatia;3532;117;2377;45.1;15.2;HR;4227746
Albania;3278;85;1875;41.1533;20.1683;AL;3074579
Thailand;3216;58;3088;15.870032;100.992541;TH;68977400
"Equatorial Guinea";3071;51;842;1.6508;10.2679;GQ;836178
Somalia;3038;92;1209;5.152149;46.199616;SO;11757124
Nicaragua;2846;91;1993;12.865416;-85.207229;NI;6203441
Paraguay;2736;20;1256;-23.4425;-58.4438;PY;7191685
Maldives;2617;13;2238;3.2028;73.2207;MV;391904
"Sri Lanka";2454;11;1980;7.873054;80.771797;LK;22889201
Cuba;2413;86;2249;21.521757;-77.781167;CU;11059062
Mali;2404;121;1650;17.570692;-3.996166;ML;19553397
Lebanon;2082;36;1402;33.8547;35.8623;LB;5469612
Malawi;2069;31;379;-13.254308;34.301525;MW;21196629
"Congo (Brazzaville)";2028;47;589;-0.228;15.8277;CD;5293070
"South Sudan";2021;38;333;6.877;31.307;SS;10561244
Estonia;2014;69;1895;58.5953;25.0136;EE;1228624
Zambia;1895;42;1348;-13.133897;27.849332;ZM;17426623
Slovakia;1893;28;1493;48.669;19.699;SK;5440602
Iceland;1886;10;1859;64.9631;-19.0208;IS;350734
Lithuania;1865;79;1579;55.1694;23.8813;LT;2731464
Guinea-Bissau;1842;26;773;11.8037;-15.1804;GW;2065173
Slovenia;1827;111;1429;46.1512;14.9955;SI;2102678
"Sierra Leone";1613;63;1133;8.460555;-11.779889;SL;6624933
"Cabo Verde";1591;19;730;16.5388;-23.0418;CV;583255
"New Zealand";1543;22;1497;-40.9006;174.886;NZ;4925477
Yemen;1380;364;630;15.552727;48.516388;YE;29884405
"Hong Kong";1365;7;1167;22.3;114.2;HK;7249907
Libya;1342;38;307;26.3351;17.228331;LY;6679000
Benin;1285;23;333;9.3077;2.3158;BJ;12864634
Eswatini;1257;18;633;-26.5225;31.4659;SZ;1104479
Rwanda;1252;3;635;-1.9403;29.8739;RW;12712431
Tunisia;1240;50;1067;33.886917;9.537499;TN;11721177
Jordan;1173;10;986;31.24;36.51;JO;10820644
Latvia;1173;30;1019;56.8796;24.6032;LV;1881232
Mozambique;1111;9;344;-18.665695;35.529562;MZ;30098197
Niger;1099;68;978;17.607789;8.081666;NE;22772361
"Burkina Faso";1020;53;862;12.2383;-1.5616;BF;20835401
Montenegro;1019;19;320;42.708678;19.37439;ME;609859
Cyprus;1013;19;839;35.1264;33.4299;CY;1266676
Uganda;1006;0;938;1.373333;32.290275;UG;43252966
Uruguay;985;29;886;-32.5228;-55.7658;UY;3387605
Georgia;981;15;851;42.3154;43.3569;GE;3997000
Liberia;963;47;400;6.428055;-9.429499;LR;5073296
Zimbabwe;942;13;320;-19.015438;29.154857;ZW;14546314
Chad;874;74;789;15.4542;18.7322;TD;16877357
Andorra;855;52;803;42.5063;1.5218;AD;77000
Jamaica;753;10;605;18.1096;-77.2975;JM;2808570
"Sao Tome and Principe";727;14;284;0.18636;6.613081;ST;211122
Suriname;726;18;481;3.9193;-56.0278;SR;609569
"Diamond Princess";712;14;651;35.4437;139.6380;OT;3711
Togo;710;15;494;8.6195;0.8248;TG;8608444
"San Marino";699;42;656;43.9424;12.4578;SM;34232
Malta;674;9;658;35.9375;14.3754;MT;457267
Namibia;668;1;25;-22.9576;18.4904;NA;2630073
Tanzania;509;21;183;-6.369028;34.888822;TZ;58552845
Angola;458;23;117;-11.2027;17.8739;AO;32522339
Taiwan*;449;7;438;23.7;121;TW;23603049
Syria;394;16;126;34.802075;38.996815;SY;19398448
Vietnam;370;0;350;14.058324;108.277199;VN;98721275
Mauritius;342;10;330;-20.348404;57.552152;MU;1379365
"Isle of Man";336;24;312;54.2361;-4.5481;IM;90499
Burma;326;6;256;21.9162;95.956;MM;56590071
Botswana;314;1;31;-22.3285;24.6849;BW;2317233
Comoros;314;7;272;-11.6455;43.3333;KM;846281
Guam;310;5;0;13.4443;144.7937;GU;168485
Guyana;290;16;134;4.860416;-58.93018;GY;750204
Eritrea;232;0;107;15.1794;39.7823;ER;6081196
Mongolia;227;0;200;46.8625;103.8467;MN;3168026
"Cayman Islands";201;1;197;19.3133;-81.2546;KY;61944
Burundi;191;1;118;-3.3731;29.9189;BI;11865821
"Faroe Islands";188;0;188;61.8926;-6.9118;FO;51628
Lesotho;184;1;26;-29.609988;28.233608;LS;1969334
Gibraltar;180;0;176;36.1408;-5.3536;GI;29581
Bermuda;150;9;137;32.3078;-64.7505;BM;71750
Cambodia;141;0;133;11.55;104.9167;KH;16926984
Brunei;141;3;138;4.5353;114.7277;BN;464478
"Trinidad and Tobago";133;8;120;10.6918;-61.2225;TT;1208789
Bahamas;108;11;89;25.025885;-78.035889;BS;337721
Monaco;108;4;96;43.7333;7.4167;MC;39000
Aruba;105;3;98;12.5211;-69.9683;AW;119428
Seychelles;100;0;11;-4.6796;55.492;SC;95981
Barbados;98;7;90;13.1939;-59.5432;BB;294560
Liechtenstein;84;1;81;47.14;9.55;LI;39137
Bhutan;82;0;57;27.5142;90.4336;BT;782318
"Sint Maarten";78;15;63;18.0425;-63.0548;SX;32556
"Antigua and Barbuda";74;3;57;17.0608;-61.7964;AG;98179
"Turks and Caicos Islands";66;2;11;21.694;-71.7979;TC;55926
Gambia;64;3;34;13.4432;-15.3101;GM;2173999
"French Polynesia";62;0;60;-17.6797;-149.4068;PF;295121
Macau;46;0;45;22.1667;113.55;MO;614458
Belize;37;2;20;17.1899;-88.4976;BZ;374681
"Saint Vincent and the Grenadines";29;0;29;12.9843;-61.2872;VC;101390
Fiji;26;0;18;-17.7134;178.065;FJ;935974
Curacao;25;1;24;12.1696;-68.99;CW;151345
Timor-Leste;24;0;24;-8.874217;125.727539;TL;1383723
Grenada;23;0;23;12.1165;-61.679;GD;113094
"Saint Lucia";22;0;19;13.9094;-60.9789;LC;166487
"New Caledonia";21;0;21;-20.904305;165.618042;NC;290009
Laos;19;0;19;19.85627;102.495496;LA;7447396
Dominica;18;0;18;15.415;-61.371;DM;74243
"Saint Kitts and Nevis";17;0;15;17.357822;-62.782998;KN;55345
"Falkland Islands (Malvinas)";13;0;13;-51.7963;-59.5236;FK;3198
Greenland;13;0;13;71.7069;-42.6043;GL;57616
"Holy See";12;0;12;41.9029;12.4534;VA;1000
"Papua New Guinea";11;0;8;-6.314993;143.95555;PG;7259456
Montserrat;11;1;10;16.742498;-62.187366;MS;5373
"Western Sahara";10;1;8;24.2155;-12.8858;EH;652271
"British Virgin Islands";8;1;7;18.4207;-64.64;VG;31196
"Saint Barthelemy";6;0;6;17.9;-62.8333;BL;7122
Anguilla;3;0;3;18.2206;-63.0686;AI;18090
"Saint Pierre and Miquelon";2;0;1;46.8852;-56.3159;PM;5347
"American Samoa";0;0;0;-14.271;-170.132;AS;49437
