Country;"Confirmed Cases";Deaths;Recovered;Latitude;Longitude;"Country Code";Size
US;4278990;147850;1325804;44.693947;-69.381927;US;332639102
Brazil;2442375;87618;1846641;-10.1753;-48.2982;BR;211715973
India;1480073;33408;951166;18.1124;79.0193;IN;1326093247
Russia;822060;13483;611109;52.248521;115.956325;RU;141722205
"South Africa";452529;7067;274925;-30.5595;22.9375;ZA;56463617
Mexico;395489;44022;303810;22.7709;-102.5832;MX;128649565
Peru;389717;18418;272547;-9.621718;-73.444929;PE;31914989
Chile;347923;9187;319954;-33.0472;-71.6127;CL;18186770
"United Kingdom";300695;45806;533;52.1307;-3.7837;GB;65761117
Iran;293606;15912;255144;32.427908;53.688046;IR;84923314
Pakistan;275225;5865;242436;26.009446;68.776807;PK;233500636
Spain;272421;28432;150376;42.9896;-2.6189;ES;50015792
"Saudi Arabia";268934;2760;222936;23.885942;45.079162;SA;34173498
Colombia;257101;8777;131161;4.4234;-69.2878;CO;49084841
Italy;246286;35112;198593;45.43490485;12.33845213;IT;62402659
Turkey;227019;5630;210469;38.9637;35.2433;TR;82017514
Bangladesh;226225;2965;125683;23.685;90.3563;BD;162650853
France;220257;30212;81123;46.2276;2.2137;FR;67848156
Germany;207382;9127;190614;51.011;10.8453;DE;80159662
Argentina;167416;3059;72575;-38.4161;-63.6167;AR;45479118
Canada;116471;8944;101447;64.2823;-135;CA;37694085
Iraq;112585;4458;77144;33.223191;43.679291;IQ;38872655
Qatar;109597;165;106328;25.3548;51.1839;QA;2444174
Indonesia;100303;4838;58173;-0.7893;113.9213;ID;267026366
Egypt;92482;4652;34838;26.820553;30.802498;EG;104124440
Kazakhstan;84648;585;54404;48.0196;66.9237;KZ;19091949
China;83959;4634;78934;29.1832;120.0934;CN;1394015977
Philippines;82040;1945;26446;12.879721;121.774017;PH;109180815
Ecuador;81161;5532;34896;-1.8312;-78.1834;EC;16904867
Sweden;79395;5700;0;58.2528;13.0596;SE;10202491
Oman;77058;393;57028;21.512583;55.923255;OM;4664844
Bolivia;71181;2647;21478;-16.2902;-63.5887;BO;11639909
Ukraine;68030;1650;37852;50.2547;28.6587;UA;43922939
Belarus;67251;538;60492;53.7098;27.9534;BY;9477918
Belgium;66428;9822;17452;50.8333;4.469936;BE;11720716
Israel;64458;474;32109;31.046051;34.851612;IL;8675475
Kuwait;64379;438;55057;29.31166;47.481766;KW;2993706
"Dominican Republic";64156;1083;30204;18.7357;-70.1627;DO;10499707
Panama;61442;1322;35086;8.538;-80.7821;PA;3894082
"United Arab Emirates";59177;345;52510;23.424076;53.847818;AE;9992083
Netherlands;53162;6141;7;51.937835;4.462114;NL;17280397
Singapore;50838;27;45692;1.2833;103.8333;SG;6209660
Portugal;50299;1719;35375;39.3999;-8.2245;PT;10302674
Romania;45902;2206;25794;45.9432;24.9668;RO;21302893
Guatemala;45309;1761;32455;15.7835;-90.2308;GT;17153288
Poland;43402;1676;32856;51.9194;19.1451;PL;38282325
Nigeria;41180;860;18203;9.082;8.6753;NG;214028302
Honduras;39741;1166;5039;15.2;-86.2419;HN;9235340
Bahrain;39482;141;36110;26.0275;50.55;BH;1505003
Armenia;37629;719;27357;40.0691;45.0382;AM;3021324
Afghanistan;36368;1270;25358;33.93911;67.709953;AF;36643815
Switzerland;34477;1978;30900;46.8182;8.2275;CH;8403994
Kyrgyzstan;33718;1329;22296;41.20438;74.766098;KG;5964897
Ghana;33624;168;29801;7.9465;-1.0232;GH;29340248
Japan;31586;998;21970;35.612364;138.611489;JP;125507472
Azerbaijan;30446;423;23242;40.1431;47.5769;AZ;10205810
Algeria;27973;1163;18837;28.0339;1.6596;DZ;42972878
Ireland;25892;1764;23364;53.1424;-7.6921;IE;5176569
Serbia;24141;543;0;44.0165;21.0059;RS;7012165
Moldova;23154;748;16154;47.4116;28.3699;MD;3364496
Uzbekistan;21506;122;11674;41.377491;64.585262;UZ;30565411
Morocco;20887;316;16553;31.7917;-7.0926;MA;35561654
Austria;20558;713;18246;47.5162;14.5501;AT;8859449
Nepal;18752;48;13754;28.1667;84.25;NP;30327877
Kenya;17975;285;7833;-0.0236;37.9062;KE;53527936
Cameroon;17110;391;14539;3.848;11.5021;CM;27744989
Venezuela;15988;146;9959;6.4238;-66.5897;VE;28644603
"Costa Rica";15841;115;3824;9.7489;-83.7534;CR;5097988
"Cote d'Ivoire";15655;96;10361;7.54;-5.5471;CI;27481086
Czechia;15516;373;11428;49.8175;15.473;CZ;10702498
"Puerto Rico";15431;201;0;18.2208;-66.5901;PR;3189068
Australia;15304;167;9431;-31.9505;115.8605;AU;25466459
"El Salvador";15035;408;7793;13.7942;-88.8965;SV;6481102
Ethiopia;14547;228;6386;9.145;40.4897;ET;108113150
"Korea, South";14203;300;13007;35.907757;127.766922;KR;51835110
Denmark;13547;613;12417;56.2639;9.5018;DK;5869410
Sudan;11424;720;5939;12.8628;30.2176;SD;45561556
Bulgaria;10621;347;5585;42.7339;25.4858;BG;6966899
"Bosnia and Herzegovina";10498;294;4930;43.9159;17.6791;BA;3835586
"North Macedonia";10213;466;5564;41.6086;21.7453;MK;2125971
Senegal;9764;194;6477;14.4974;-14.4524;SN;15736368
Madagascar;9690;91;6260;-18.766947;46.869107;MG;26955737
Norway;9132;255;8752;60.472;8.4689;NO;5467439
Malaysia;8904;124;8601;4.210484;101.975766;MY;32652083
"Congo (Kinshasa)";8844;208;5700;-4.0383;21.7587;CG;101780263
Kosovo;7413;185;4027;42.602636;20.902977;XK;1932774
Finland;7398;329;6920;61.92411;25.748151;FI;5571665
Haiti;7340;158;4365;18.9712;-72.2852;HT;11067777
Tajikistan;7235;60;6028;38.861034;71.276093;TJ;8873669
Gabon;7189;49;4682;-0.8037;11.6094;GA;2230908
Guinea;7055;45;6257;9.9456;-9.6966;GN;12527440
Luxembourg;6321;112;4825;49.8153;6.1296;LU;628381
Mauritania;6208;156;4653;21.0079;-10.9408;MR;4005475
Djibouti;5059;58;4977;11.8251;42.5903;DJ;921804
Croatia;4881;139;3936;45.1;15.2;HR;4227746
Albania;4880;144;2745;41.1533;20.1683;AL;3074579
"Central African Republic";4599;59;1546;6.6111;20.9394;CF;5990855
Zambia;4552;140;2815;-13.133897;27.849332;ZM;17426623
Paraguay;4548;43;2905;-23.4425;-58.4438;PY;7191685
Hungary;4456;596;3331;47.1625;19.5033;HU;9771827
Greece;4227;202;1374;39.0742;21.8243;GR;10607051
Lebanon;3882;51;1709;33.8547;35.8623;LB;5469612
Malawi;3709;103;1667;-13.254308;34.301525;MW;21196629
Nicaragua;3439;108;2492;12.865416;-85.207229;NI;6203441
Maldives;3369;15;2547;3.2028;73.2207;MV;391904
Thailand;3297;58;3111;15.870032;100.992541;TH;68977400
"Congo (Brazzaville)";3200;54;829;-0.228;15.8277;CD;5293070
Somalia;3196;93;1543;5.152149;46.199616;SO;11757124
"Equatorial Guinea";3071;51;842;1.6508;10.2679;GQ;836178
Montenegro;2893;45;809;42.708678;19.37439;ME;609859
Libya;2827;64;577;26.3351;17.228331;LY;6679000
"Sri Lanka";2805;11;2121;7.873054;80.771797;LK;22889201
"Hong Kong";2778;22;1486;22.3;114.2;HK;7249907
Zimbabwe;2704;36;542;-19.015438;29.154857;ZW;14546314
Cuba;2532;87;2351;21.521757;-77.781167;CU;11059062
Mali;2513;124;1913;17.570692;-3.996166;ML;19553397
"Cabo Verde";2328;22;1550;16.5388;-23.0418;CV;583255
Eswatini;2316;34;1025;-26.5225;31.4659;SZ;1104479
"South Sudan";2305;46;1175;6.877;31.307;SS;10561244
Slovakia;2181;28;1616;48.669;19.699;SK;5440602
Slovenia;2087;116;1733;46.1512;14.9955;SI;2102678
Estonia;2034;69;1923;58.5953;25.0136;EE;1228624
Lithuania;2019;80;1620;55.1694;23.8813;LT;2731464
Guinea-Bissau;1954;26;803;11.8037;-15.1804;GW;2065173
Rwanda;1879;5;975;-1.9403;29.8739;RW;12712431
Iceland;1854;10;1823;64.9631;-19.0208;IS;350734
Namibia;1843;8;101;-22.9576;18.4904;NA;2630073
"Sierra Leone";1783;66;1317;8.460555;-11.779889;SL;6624933
Benin;1770;35;1036;9.3077;2.3158;BJ;12864634
Mozambique;1701;11;596;-18.665695;35.529562;MZ;30098197
Yemen;1691;483;833;15.552727;48.516388;YE;29884405
"New Zealand";1557;22;1514;-40.9006;174.886;NZ;4925477
Suriname;1483;24;925;3.9193;-56.0278;SR;609569
Tunisia;1455;50;1157;33.886917;9.537499;TN;11721177
Latvia;1220;31;1052;56.8796;24.6032;LV;1881232
Uruguay;1202;35;951;-32.5228;-55.7658;UY;3387605
Jordan;1176;11;1041;31.24;36.51;JO;10820644
Liberia;1167;72;646;6.428055;-9.429499;LR;5073296
Georgia;1145;16;927;42.3154;43.3569;GE;3997000
Niger;1132;69;1027;17.607789;8.081666;NE;22772361
Uganda;1128;2;986;1.373333;32.290275;UG;43252966
"Burkina Faso";1100;53;926;12.2383;-1.5616;BF;20835401
Cyprus;1060;19;852;35.1264;33.4299;CY;1266676
Angola;950;41;242;-11.2027;17.8739;AO;32522339
Chad;922;75;810;15.4542;18.7322;TD;16877357
Andorra;907;52;803;42.5063;1.5218;AD;77000
Togo;874;18;607;8.6195;0.8248;TG;8608444
"Sao Tome and Principe";865;14;734;0.18636;6.613081;ST;211122
Jamaica;853;10;714;18.1096;-77.2975;JM;2808570
Botswana;739;2;63;-22.3285;24.6849;BW;2317233
"Diamond Princess";712;14;651;35.4437;139.6380;OT;3711
Malta;701;9;665;35.9375;14.3754;MT;457267
"San Marino";699;42;657;43.9424;12.4578;SM;34232
Syria;674;40;210;34.802075;38.996815;SY;19398448
Tanzania;509;21;183;-6.369028;34.888822;TZ;58552845
Lesotho;505;12;128;-29.609988;28.233608;LS;1969334
Taiwan*;467;7;440;23.7;121;TW;23603049
Vietnam;431;0;365;14.058324;108.277199;VN;98721275
Guyana;389;20;181;4.860416;-58.93018;GY;750204
Bahamas;382;11;91;25.025885;-78.035889;BS;337721
Burundi;378;1;301;-3.3731;29.9189;BI;11865821
Comoros;354;7;328;-11.6455;43.3333;KM;846281
Burma;350;6;292;21.9162;95.956;MM;56590071
Guam;349;5;0;13.4443;144.7937;GU;168485
Mauritius;344;10;332;-20.348404;57.552152;MU;1379365
"Isle of Man";336;24;312;54.2361;-4.5481;IM;90499
Gambia;326;8;66;13.4432;-15.3101;GM;2173999
Mongolia;289;0;222;46.8625;103.8467;MN;3168026
Eritrea;265;0;191;15.1794;39.7823;ER;6081196
Cambodia;226;0;147;11.55;104.9167;KH;16926984
"Faroe Islands";214;0;188;61.8926;-6.9118;FO;51628
"Cayman Islands";203;1;202;19.3133;-81.2546;KY;61944
Gibraltar;185;0;180;36.1408;-5.3536;GI;29581
Bermuda;154;9;141;32.3078;-64.7505;BM;71750
"Trinidad and Tobago";148;8;128;10.6918;-61.2225;TT;1208789
Brunei;141;3;138;4.5353;114.7277;BN;464478
Aruba;119;3;102;12.5211;-69.9683;AW;119428
Monaco;116;4;104;43.7333;7.4167;MC;39000
Seychelles;114;0;39;-4.6796;55.492;SC;95981
"Sint Maarten";114;15;63;18.0425;-63.0548;SX;32556
Barbados;110;7;94;13.1939;-59.5432;BB;294560
"Turks and Caicos Islands";99;2;36;21.694;-71.7979;TC;55926
Bhutan;99;0;86;27.5142;90.4336;BT;782318
"Antigua and Barbuda";86;3;65;17.0608;-61.7964;AG;98179
Liechtenstein;86;1;81;47.14;9.55;LI;39137
"French Polynesia";62;0;60;-17.6797;-149.4068;PF;295121
"Papua New Guinea";62;0;11;-6.314993;143.95555;PG;7259456
"Saint Vincent and the Grenadines";52;0;39;12.9843;-61.2872;VC;101390
Belize;48;2;26;17.1899;-88.4976;BZ;374681
Macau;46;0;46;22.1667;113.55;MO;614458
Curacao;29;1;24;12.1696;-68.99;CW;151345
Fiji;27;0;18;-17.7134;178.065;FJ;935974
Timor-Leste;24;0;24;-8.874217;125.727539;TL;1383723
"Saint Lucia";24;0;22;13.9094;-60.9789;LC;166487
Grenada;23;0;23;12.1165;-61.679;GD;113094
"New Caledonia";22;0;22;-20.904305;165.618042;NC;290009
Laos;20;0;19;19.85627;102.495496;LA;7447396
Dominica;18;0;18;15.415;-61.371;DM;74243
"Saint Kitts and Nevis";17;0;15;17.357822;-62.782998;KN;55345
Greenland;14;0;13;71.7069;-42.6043;GL;57616
"Falkland Islands (Malvinas)";13;0;13;-51.7963;-59.5236;FK;3198
Montserrat;12;1;10;16.742498;-62.187366;MS;5373
"Holy See";12;0;12;41.9029;12.4534;VA;1000
"Western Sahara";10;1;8;24.2155;-12.8858;EH;652271
"British Virgin Islands";8;1;7;18.4207;-64.64;VG;31196
"Saint Barthelemy";7;0;6;17.9;-62.8333;BL;7122
"Saint Pierre and Miquelon";4;0;1;46.8852;-56.3159;PM;5347
Anguilla;3;0;3;18.2206;-63.0686;AI;18090
"American Samoa";0;0;0;-14.271;-170.132;AS;49437
