Country;"Confirmed Cases";Deaths;Recovered;Latitude;Longitude;"Country Code";Size
US;2556660;125770;685164;44.693947;-69.381927;US;332639102
Brazil;1344143;57622;746018;-10.1753;-48.2982;BR;211715973
Russia;640246;9152;402778;52.248521;115.956325;RU;141722205
India;548318;16475;321723;23.814082;87.979803;IN;1326093247
"United Kingdom";312536;43622;512;52.1307;-3.7837;GB;65761117
Peru;279419;9317;167998;-9.621718;-73.444929;PE;31914989
Chile;271982;5509;232210;-33.0472;-71.6127;CL;18186770
Spain;248970;28346;150376;42.9896;-2.6189;ES;50015792
Italy;240436;34744;189196;45.43490485;12.33845213;IT;62402659
Iran;225205;10670;186180;32.427908;53.688046;IR;84923314
Mexico;216852;26648;164646;22.7709;-102.5832;MX;128649565
Pakistan;206512;4167;95407;26.009446;68.776807;PK;233500636
France;199386;29781;75686;46.2276;2.2137;FR;67848156
Turkey;198613;5115;171809;38.9637;35.2433;TR;82017514
Germany;195042;8976;177812;51.011;10.8453;DE;80159662
"Saudi Arabia";186436;1599;127118;23.885942;45.079162;SA;34173498
Bangladesh;141801;1783;57780;23.685;90.3563;BD;162650853
"South Africa";138134;2456;68925;-30.5595;22.9375;ZA;56463617
Canada;105615;8618;68569;64.2823;-135;CA;37694085
Qatar;95106;113;80170;25.3548;51.1839;QA;2444174
Colombia;91995;3256;38345;4.4234;-69.2878;CO;49084841
China;83512;4634;78461;29.1832;120.0934;CN;1394015977
Sweden;67667;5310;0;58.2528;13.0596;SE;10202491
Egypt;65188;2789;17539;26.820553;30.802498;EG;104124440
Belarus;61790;387;45213;53.7098;27.9534;BY;9477918
Belgium;61361;9732;16941;50.8333;4.469936;BE;11720716
Argentina;59933;1245;21138;-38.4161;-63.6167;AR;45479118
Ecuador;55665;4502;27430;-1.8312;-78.1834;EC;16904867
Indonesia;55092;2805;23800;-0.7893;113.9213;ID;267026366
Netherlands;50230;6107;7;52.1326;5.2913;NL;17280397
"United Arab Emirates";47797;313;36411;23.424076;53.847818;AE;9992083
Iraq;47151;1839;22974;33.223191;43.679291;IQ;38872655
Kuwait;45524;350;36313;29.31166;47.481766;KW;2993706
Ukraine;44538;1161;19679;50.2547;28.6587;UA;43922939
Singapore;43661;26;37985;1.2833;103.8333;SG;6209660
Portugal;41912;1568;27205;39.3999;-8.2245;PT;10302674
Oman;39060;169;22422;21.512583;55.923255;OM;4664844
Philippines;36438;1255;9956;12.879721;121.774017;PH;109180815
Poland;34154;1444;20897;51.9194;19.1451;PL;38282325
"Dominican Republic";31816;733;17280;18.7357;-70.1627;DO;10499707
Panama;31686;604;15470;8.538;-80.7821;PA;3894082
Switzerland;31652;1962;29100;46.8182;8.2275;CH;8403994
Bolivia;31524;1014;8517;-16.2902;-63.5887;BO;11639909
Afghanistan;31238;733;13934;33.93911;67.709953;AF;36643815
Romania;26582;1634;18912;45.9432;24.9668;RO;21302893
Bahrain;25705;83;20517;26.0275;50.55;BH;1505003
Ireland;25462;1735;23364;53.1424;-7.6921;IE;5176569
Armenia;25127;433;13297;40.0691;45.0382;AM;3021324
Nigeria;24567;565;9007;9.082;8.6753;NG;214028302
Israel;24276;319;17189;31.046051;34.851612;IL;8675475
Kazakhstan;21327;188;13008;48.0196;66.9237;KZ;19091949
Japan;18476;972;16388;35.612364;138.611489;JP;125507472
Honduras;18082;479;1875;15.2;-86.2419;HN;9235340
Austria;17723;703;16420;47.5162;14.5501;AT;8859449
Ghana;17351;112;12994;7.9465;-1.0232;GH;29340248
Azerbaijan;16968;206;9369;40.1431;47.5769;AZ;10205810
Guatemala;16930;727;3152;15.7835;-90.2308;GT;17153288
Moldova;16357;536;9229;47.4116;28.3699;MD;3364496
Serbia;14288;274;12581;44.0165;21.0059;RS;7012165
Algeria;13571;905;9671;28.0339;1.6596;DZ;42972878
Nepal;13248;29;3134;28.1667;84.25;NP;30327877
"Korea, South";12757;282;11429;35.907757;127.766922;KR;51835110
Denmark;12751;605;11612;56.2639;9.5018;DK;5869410
Cameroon;12592;313;10100;3.848;11.5021;CM;27744989
Morocco;12290;225;8833;31.7917;-7.0926;MA;35561654
Czechia;11724;348;7737;49.8175;15.473;CZ;10702498
Sudan;9257;572;4014;12.8628;30.2176;SD;45561556
"Cote d'Ivoire";9101;66;3808;7.54;-5.5471;CI;27481086
Norway;8862;249;8138;60.472;8.4689;NO;5467439
Malaysia;8637;121;8334;4.210484;101.975766;MY;32652083
Uzbekistan;8199;23;5426;41.377491;64.585262;UZ;30565411
Australia;7767;104;7008;-31.9505;115.8605;AU;25466459
"Puerto Rico";7250;153;0;18.2208;-66.5901;PR;3189068
Finland;7209;328;6600;61.92411;25.748151;FI;5571665
"Congo (Kinshasa)";6939;167;1050;-4.0383;21.7587;CG;101780263
Senegal;6698;108;4341;14.4974;-14.4524;SN;15736368
"North Macedonia";6209;298;2427;41.6086;21.7453;MK;2125971
Kenya;6190;144;2013;-0.0236;37.9062;KE;53527936
"El Salvador";6173;164;3648;13.7942;-88.8965;SV;6481102
Tajikistan;5900;52;4506;38.861034;71.276093;TJ;8873669
Haiti;5847;104;787;18.9712;-72.2852;HT;11067777
Ethiopia;5846;103;2430;9.145;40.4897;ET;108113150
Guinea;5342;31;4282;9.9456;-9.6966;GN;12527440
Venezuela;5297;44;1649;6.4238;-66.5897;VE;28644603
Gabon;5209;40;2327;-0.8037;11.6094;GA;2230908
Kyrgyzstan;5017;50;2294;41.20438;74.766098;KG;5964897
Bulgaria;4691;219;2508;42.7339;25.4858;BG;6966899
Djibouti;4656;53;4433;11.8251;42.5903;DJ;921804
"Bosnia and Herzegovina";4325;184;2366;43.9159;17.6791;BA;3835586
Luxembourg;4256;110;3997;49.8153;6.1296;LU;628381
Mauritania;4149;126;1419;21.0079;-10.9408;MR;4005475
Hungary;4145;585;2685;47.1625;19.5033;HU;9771827
"Central African Republic";3429;45;699;6.6111;20.9394;CF;5990855
Greece;3390;191;1374;39.0742;21.8243;GR;10607051
Thailand;3169;58;3053;15.870032;100.992541;TH;68977400
"Costa Rica";3130;15;1366;9.7489;-83.7534;CR;5097988
Somalia;2894;90;887;5.152149;46.199616;SO;11757124
Croatia;2725;107;2155;45.1;15.2;HR;4227746
Kosovo;2677;49;1425;42.602636;20.902977;XK;1932774
Albania;2466;58;1438;41.1533;20.1683;AL;3074579
Cuba;2340;86;2211;21.521757;-77.781167;CU;11059062
Maldives;2337;8;1927;3.2028;73.2207;MV;391904
Nicaragua;2170;74;1238;12.865416;-85.207229;NI;6203441
Mali;2147;114;1432;17.570692;-3.996166;ML;19553397
Madagascar;2138;20;966;-18.766947;46.869107;MG;26955737
Paraguay;2127;15;1065;-23.4425;-58.4438;PY;7191685
"Sri Lanka";2039;11;1678;7.873054;80.771797;LK;22889201
"Equatorial Guinea";2001;32;515;1.6508;10.2679;GQ;836178
"South Sudan";1989;36;246;6.877;31.307;SS;10561244
Estonia;1987;69;1818;58.5953;25.0136;EE;1228624
Iceland;1838;10;1816;64.9631;-19.0208;IS;350734
Lithuania;1816;78;1512;55.1694;23.8813;LT;2731464
Lebanon;1745;34;1170;33.8547;35.8623;LB;5469612
Slovakia;1665;28;1464;48.669;19.699;SK;5440602
Guinea-Bissau;1614;22;317;11.8037;-15.1804;GW;2065173
Slovenia;1585;111;1384;46.1512;14.9955;SI;2102678
Zambia;1557;22;1311;-13.133897;27.849332;ZM;17426623
"New Zealand";1528;22;1484;-40.9006;174.886;NZ;4925477
"Sierra Leone";1450;60;961;8.460555;-11.779889;SL;6624933
"Hong Kong";1199;7;1104;22.3;114.2;HK;7249907
Benin;1187;19;323;9.3077;2.3158;BJ;12864634
Tunisia;1169;50;1029;33.886917;9.537499;TN;11721177
"Cabo Verde";1155;12;570;16.5388;-23.0418;CV;583255
Malawi;1146;13;260;-13.254308;34.301525;MW;21196629
Yemen;1128;304;432;15.552727;48.516388;YE;29884405
Jordan;1128;9;867;31.24;36.51;JO;10820644
Latvia;1117;30;932;56.8796;24.6032;LV;1881232
"Congo (Brazzaville)";1087;37;456;-0.228;15.8277;CD;5293070
Niger;1074;67;939;17.607789;8.081666;NE;22772361
Cyprus;994;19;833;35.1264;33.4299;CY;1266676
"Burkina Faso";959;53;830;12.2383;-1.5616;BF;20835401
Uruguay;929;27;818;-32.5228;-55.7658;UY;3387605
Georgia;926;15;791;42.3154;43.3569;GE;3997000
Rwanda;900;2;443;-1.9403;29.8739;RW;12712431
Uganda;870;0;808;1.373333;32.290275;UG;43252966
Chad;866;74;780;15.4542;18.7322;TD;16877357
Mozambique;859;5;228;-18.665695;35.529562;MZ;30098197
Andorra;855;52;799;42.5063;1.5218;AD;77000
Eswatini;781;11;372;-26.5225;31.4659;SZ;1104479
Liberia;770;36;312;6.428055;-9.429499;LR;5073296
Libya;762;21;196;26.3351;17.228331;LY;6679000
"Sao Tome and Principe";713;13;219;0.18636;6.613081;ST;211122
"Diamond Princess";712;14;651;35.4437;139.6380;OT;3711
"San Marino";698;42;656;43.9424;12.4578;SM;34232
Jamaica;696;10;552;18.1096;-77.2975;JM;2808570
Malta;670;9;639;35.9375;14.3754;MT;457267
Togo;642;14;401;8.6195;0.8248;TG;8608444
Zimbabwe;567;6;142;-19.015438;29.154857;ZW;14546314
Tanzania;509;21;183;-6.369028;34.888822;TZ;58552845
Montenegro;501;11;315;42.708678;19.37439;ME;609859
Suriname;492;13;199;3.9193;-56.0278;SR;609569
Taiwan*;447;7;435;23.7;121;TW;23603049
Vietnam;355;0;330;14.058324;108.277199;VN;98721275
Mauritius;341;10;326;-20.348404;57.552152;MU;1379365
"Isle of Man";336;24;312;54.2361;-4.5481;IM;90499
Burma;299;6;221;21.9162;95.956;MM;56590071
Comoros;272;7;161;-11.6455;43.3333;KM;846281
Syria;269;9;102;34.802075;38.996815;SY;19398448
Angola;267;11;93;-11.2027;17.8739;AO;32522339
Guam;253;5;0;13.4443;144.7937;GU;168485
Guyana;230;12;109;4.860416;-58.93018;GY;750204
Mongolia;220;0;175;46.8625;103.8467;MN;3168026
"Cayman Islands";196;1;186;19.3133;-81.2546;KY;61944
Eritrea;191;0;53;15.1794;39.7823;ER;6081196
"Faroe Islands";187;0;187;61.8926;-6.9118;FO;51628
Namibia;183;0;24;-22.9576;18.4904;NA;2630073
Gibraltar;177;0;176;36.1408;-5.3536;GI;29581
Burundi;170;1;115;-3.3731;29.9189;BI;11865821
Bermuda;146;9;134;32.3078;-64.7505;BM;71750
Cambodia;141;0;130;11.55;104.9167;KH;16926984
Brunei;141;3;138;4.5353;114.7277;BN;464478
"Trinidad and Tobago";126;8;109;10.6918;-61.2225;TT;1208789
Bahamas;104;11;87;25.025885;-78.035889;BS;337721
Monaco;103;4;95;43.7333;7.4167;MC;39000
Aruba;101;3;98;12.5211;-69.9683;AW;119428
Barbados;97;7;90;13.1939;-59.5432;BB;294560
Botswana;92;1;25;-22.3285;24.6849;BW;2317233
Liechtenstein;82;1;81;47.14;9.55;LI;39137
"Sint Maarten";77;15;62;18.0425;-63.0548;SX;32556
Seychelles;77;0;11;-4.6796;55.492;SC;95981
Bhutan;76;0;44;27.5142;90.4336;BT;782318
"Antigua and Barbuda";69;3;22;17.0608;-61.7964;AG;98179
"French Polynesia";62;0;60;-17.6797;-149.4068;PF;295121
Macau;46;0;45;22.1667;113.55;MO;614458
Gambia;45;2;26;13.4432;-15.3101;GM;2173999
"Turks and Caicos Islands";41;1;11;21.694;-71.7979;TC;55926
"Saint Vincent and the Grenadines";29;0;29;12.9843;-61.2872;VC;101390
Lesotho;27;0;4;-29.609988;28.233608;LS;1969334
Belize;24;2;18;17.1899;-88.4976;BZ;374681
Timor-Leste;24;0;24;-8.874217;125.727539;TL;1383723
Curacao;23;1;19;12.1696;-68.99;CW;151345
Grenada;23;0;23;12.1165;-61.679;GD;113094
"New Caledonia";21;0;21;-20.904305;165.618042;NC;290009
"Saint Lucia";19;0;19;13.9094;-60.9789;LC;166487
Laos;19;0;19;19.85627;102.495496;LA;7447396
Fiji;18;0;18;-17.7134;178.065;FJ;935974
Dominica;18;0;18;15.415;-61.371;DM;74243
"Saint Kitts and Nevis";15;0;15;17.357822;-62.782998;KN;55345
"Falkland Islands (Malvinas)";13;0;13;-51.7963;-59.5236;FK;3198
Greenland;13;0;13;71.7069;-42.6043;GL;57616
"Holy See";12;0;12;41.9029;12.4534;VA;1000
"Papua New Guinea";11;0;8;-6.314993;143.95555;PG;7259456
Montserrat;11;1;10;16.742498;-62.187366;MS;5373
"Western Sahara";10;1;8;24.2155;-12.8858;EH;652271
"British Virgin Islands";8;1;7;18.4207;-64.64;VG;31196
"Saint Barthelemy";6;0;6;17.9;-62.8333;BL;7122
Anguilla;3;0;3;18.2206;-63.0686;AI;18090
"Saint Pierre and Miquelon";1;0;1;46.8852;-56.3159;PM;5347
"American Samoa";0;0;0;-14.271;-170.132;AS;49437
