Country;"Confirmed Cases";Deaths;Recovered;Latitude;Longitude;"Country Code";Size
US;3272590;134894;995576;44.693947;-69.381927;US;332639102
Brazil;1839850;71469;1244088;-10.1753;-48.2982;BR;211715973
India;849553;22674;534621;23.814082;87.979803;IN;1326093247
Russia;726036;11318;500208;52.248521;115.956325;RU;141722205
Peru;322710;11682;214152;-9.621718;-73.444929;PE;31914989
Chile;312029;6881;281114;-33.0472;-71.6127;CL;18186770
Mexico;295268;34730;229856;22.7709;-102.5832;MX;128649565
"United Kingdom";290180;44866;512;52.1307;-3.7837;GB;65761117
"South Africa";264184;3971;127715;-30.5595;22.9375;ZA;56463617
Iran;257303;12829;219993;32.427908;53.688046;IR;84923314
Spain;253908;28403;150376;42.9896;-2.6189;ES;50015792
Pakistan;248872;5197;156700;26.009446;68.776807;PK;233500636
Italy;243061;34954;194928;45.43490485;12.33845213;IT;62402659
"Saudi Arabia";232259;2223;167138;23.885942;45.079162;SA;34173498
Turkey;212993;5363;194515;38.9637;35.2433;TR;82017514
France;207924;30007;78425;46.2276;2.2137;FR;67848156
Germany;199919;9071;184414;51.011;10.8453;DE;80159662
Bangladesh;183795;2352;93614;23.685;90.3563;BD;162650853
Colombia;145362;5426;61186;4.4234;-69.2878;CO;49084841
Canada;109292;8827;72918;64.2823;-135;CA;37694085
Qatar;103598;147;99743;25.3548;51.1839;QA;2444174
Argentina;97509;1818;42694;-38.4161;-63.6167;AR;45479118
China;83594;4634;78634;29.1832;120.0934;CN;1394015977
Egypt;81158;3769;23876;26.820553;30.802498;EG;104124440
Iraq;77506;3150;44724;33.223191;43.679291;IQ;38872655
Indonesia;75699;3606;35638;-0.7893;113.9213;ID;267026366
Sweden;74898;5526;0;58.2528;13.0596;SE;10202491
Ecuador;67209;5031;30107;-1.8312;-78.1834;EC;16904867
Belarus;64932;464;55380;53.7098;27.9534;BY;9477918
Belgium;62606;9782;17196;50.8333;4.469936;BE;11720716
Kazakhstan;58253;264;33814;48.0196;66.9237;KZ;19091949
Oman;56015;257;36098;21.512583;55.923255;OM;4664844
Kuwait;54894;390;44610;29.31166;47.481766;KW;2993706
"United Arab Emirates";54854;333;45140;23.424076;53.847818;AE;9992083
Ukraine;54647;1400;26971;50.2547;28.6587;UA;43922939
Philippines;54222;1372;14037;12.879721;121.774017;PH;109180815
Netherlands;51029;6137;7;52.1326;5.2913;NL;17280397
Bolivia;47200;1754;14333;-16.2902;-63.5887;BO;11639909
Portugal;46512;1660;30907;39.3999;-8.2245;PT;10302674
Singapore;45961;26;42285;1.2833;103.8333;SG;6209660
"Dominican Republic";44532;897;21459;18.7357;-70.1627;DO;10499707
Panama;44332;893;22170;8.538;-80.7821;PA;3894082
Israel;38670;362;19008;31.046051;34.851612;IL;8675475
Poland;37891;1571;27148;51.9194;19.1451;PL;38282325
Afghanistan;34451;1010;21216;33.93911;67.709953;AF;36643815
Switzerland;32883;1968;29500;46.8182;8.2275;CH;8403994
Romania;32535;1884;21545;45.9432;24.9668;RO;21302893
Bahrain;32470;108;27828;26.0275;50.55;BH;1505003
Nigeria;31987;724;13103;9.082;8.6753;NG;214028302
Armenia;31969;565;19633;40.0691;45.0382;AM;3021324
Guatemala;28598;1172;4073;15.7835;-90.2308;GT;17153288
Honduras;27583;771;2901;15.2;-86.2419;HN;9235340
Ireland;25628;1746;23364;53.1424;-7.6921;IE;5176569
Ghana;24248;135;19831;7.9465;-1.0232;GH;29340248
Azerbaijan;24041;306;15093;40.1431;47.5769;AZ;10205810
Japan;21839;983;17845;35.612364;138.611489;JP;125507472
Moldova;19382;642;12667;47.4116;28.3699;MD;3364496
Algeria;19195;1011;13743;28.0339;1.6596;DZ;42972878
Austria;18897;708;16952;47.5162;14.5501;AT;8859449
Serbia;18360;393;13876;44.0165;21.0059;RS;7012165
Nepal;16801;38;8589;28.1667;84.25;NP;30327877
Morocco;15745;250;12283;31.7917;-7.0926;MA;35561654
Cameroon;15173;359;11928;3.848;11.5021;CM;27744989
"Korea, South";13417;289;12178;35.907757;127.766922;KR;51835110
Czechia;13148;352;8229;49.8175;15.473;CZ;10702498
Denmark;12946;609;12077;56.2639;9.5018;DK;5869410
Uzbekistan;12855;59;7723;41.377491;64.585262;UZ;30565411
"Cote d'Ivoire";12443;82;6357;7.54;-5.5471;CI;27481086
Kyrgyzstan;10629;132;3387;41.20438;74.766098;KG;5964897
Sudan;10250;650;5341;12.8628;30.2176;SD;45561556
Kenya;10105;185;2881;-0.0236;37.9062;KE;53527936
Australia;9797;108;7728;-31.9505;115.8605;AU;25466459
"El Salvador";9674;260;5634;13.7942;-88.8965;SV;6481102
"Puerto Rico";9654;167;0;18.2208;-66.5901;PR;3189068
Venezuela;9178;85;2671;6.4238;-66.5897;VE;28644603
Norway;8979;252;8138;60.472;8.4689;NO;5467439
Malaysia;8718;122;8519;4.210484;101.975766;MY;32652083
Senegal;8135;148;5446;14.4974;-14.4524;SN;15736368
"North Macedonia";8111;382;4203;41.6086;21.7453;MK;2125971
"Congo (Kinshasa)";8033;189;3615;-4.0383;21.7587;CG;101780263
Ethiopia;7560;127;2430;9.145;40.4897;ET;108113150
Finland;7294;329;6800;61.92411;25.748151;FI;5571665
"Costa Rica";7231;28;2220;9.7489;-83.7534;CR;5097988
Bulgaria;7175;267;3311;42.7339;25.4858;BG;6966899
"Bosnia and Herzegovina";6877;221;3115;43.9159;17.6791;BA;3835586
Haiti;6690;139;2590;18.9712;-72.2852;HT;11067777
Tajikistan;6552;55;5228;38.861034;71.276093;TJ;8873669
Guinea;6044;37;4802;9.9456;-9.6966;GN;12527440
Gabon;5942;46;3004;-0.8037;11.6094;GA;2230908
Mauritania;5275;147;2160;21.0079;-10.9408;MR;4005475
Djibouti;4972;56;4712;11.8251;42.5903;DJ;921804
Luxembourg;4925;111;4086;49.8153;6.1296;LU;628381
Madagascar;4867;35;2378;-18.766947;46.869107;MG;26955737
Kosovo;4715;101;2227;42.602636;20.902977;XK;1932774
"Central African Republic";4288;53;1145;6.6111;20.9394;CF;5990855
Hungary;4234;595;3036;47.1625;19.5033;HU;9771827
Greece;3803;193;1374;39.0742;21.8243;GR;10607051
Croatia;3722;119;2486;45.1;15.2;HR;4227746
Albania;3454;93;1946;41.1533;20.1683;AL;3074579
Thailand;3217;58;3088;15.870032;100.992541;TH;68977400
"Equatorial Guinea";3071;51;842;1.6508;10.2679;GQ;836178
Somalia;3059;93;1264;5.152149;46.199616;SO;11757124
Nicaragua;2846;91;1993;12.865416;-85.207229;NI;6203441
Paraguay;2820;21;1261;-23.4425;-58.4438;PY;7191685
Maldives;2731;13;2284;3.2028;73.2207;MV;391904
"Sri Lanka";2617;11;1981;7.873054;80.771797;LK;22889201
Cuba;2426;87;2258;21.521757;-77.781167;CU;11059062
Mali;2411;121;1694;17.570692;-3.996166;ML;19553397
Malawi;2364;38;557;-13.254308;34.301525;MW;21196629
Lebanon;2334;36;1420;33.8547;35.8623;LB;5469612
"Congo (Brazzaville)";2028;47;589;-0.228;15.8277;CD;5293070
"South Sudan";2021;38;333;6.877;31.307;SS;10561244
Estonia;2014;69;1895;58.5953;25.0136;EE;1228624
Slovakia;1901;28;1493;48.669;19.699;SK;5440602
Iceland;1896;10;1865;64.9631;-19.0208;IS;350734
Zambia;1895;42;1348;-13.133897;27.849332;ZM;17426623
Lithuania;1869;79;1571;55.1694;23.8813;LT;2731464
Guinea-Bissau;1842;26;773;11.8037;-15.1804;GW;2065173
Slovenia;1841;111;1469;46.1512;14.9955;SI;2102678
"Sierra Leone";1635;63;1154;8.460555;-11.779889;SL;6624933
"Cabo Verde";1623;19;748;16.5388;-23.0418;CV;583255
"New Zealand";1544;22;1497;-40.9006;174.886;NZ;4925477
"Hong Kong";1469;7;1214;22.3;114.2;HK;7249907
Libya;1433;39;341;26.3351;17.228331;LY;6679000
Yemen;1389;365;642;15.552727;48.516388;YE;29884405
Benin;1378;26;557;9.3077;2.3158;BJ;12864634
Eswatini;1351;20;668;-26.5225;31.4659;SZ;1104479
Rwanda;1299;4;663;-1.9403;29.8739;RW;12712431
Tunisia;1263;50;1076;33.886917;9.537499;TN;11721177
Montenegro;1221;23;325;42.708678;19.37439;ME;609859
Jordan;1179;10;997;31.24;36.51;JO;10820644
Latvia;1173;30;1019;56.8796;24.6032;LV;1881232
Mozambique;1157;9;364;-18.665695;35.529562;MZ;30098197
Niger;1099;68;992;17.607789;8.081666;NE;22772361
"Burkina Faso";1033;53;869;12.2383;-1.5616;BF;20835401
Uganda;1025;0;972;1.373333;32.290275;UG;43252966
Cyprus;1021;19;839;35.1264;33.4299;CY;1266676
Liberia;1010;51;423;6.428055;-9.429499;LR;5073296
Georgia;986;15;857;42.3154;43.3569;GE;3997000
Uruguay;986;30;896;-32.5228;-55.7658;UY;3387605
Zimbabwe;982;18;320;-19.015438;29.154857;ZW;14546314
Chad;874;74;790;15.4542;18.7322;TD;16877357
Andorra;855;52;803;42.5063;1.5218;AD;77000
Namibia;785;1;26;-22.9576;18.4904;NA;2630073
Jamaica;758;10;615;18.1096;-77.2975;JM;2808570
Suriname;741;18;495;3.9193;-56.0278;SR;609569
"Sao Tome and Principe";727;14;284;0.18636;6.613081;ST;211122
"Diamond Princess";712;14;651;35.4437;139.6380;OT;3711
Togo;710;15;494;8.6195;0.8248;TG;8608444
"San Marino";699;42;656;43.9424;12.4578;SM;34232
Malta;674;9;660;35.9375;14.3754;MT;457267
Tanzania;509;21;183;-6.369028;34.888822;TZ;58552845
Angola;483;25;118;-11.2027;17.8739;AO;32522339
Taiwan*;451;7;438;23.7;121;TW;23603049
Syria;394;16;126;34.802075;38.996815;SY;19398448
Vietnam;372;0;350;14.058324;108.277199;VN;98721275
Mauritius;342;10;330;-20.348404;57.552152;MU;1379365
"Isle of Man";336;24;312;54.2361;-4.5481;IM;90499
Burma;331;6;261;21.9162;95.956;MM;56590071
Comoros;317;7;296;-11.6455;43.3333;KM;846281
Botswana;314;1;31;-22.3285;24.6849;BW;2317233
Guam;310;5;0;13.4443;144.7937;GU;168485
Guyana;291;17;148;4.860416;-58.93018;GY;750204
Eritrea;232;0;107;15.1794;39.7823;ER;6081196
Mongolia;230;0;202;46.8625;103.8467;MN;3168026
"Cayman Islands";201;1;197;19.3133;-81.2546;KY;61944
Burundi;191;1;118;-3.3731;29.9189;BI;11865821
"Faroe Islands";188;0;188;61.8926;-6.9118;FO;51628
Lesotho;184;1;26;-29.609988;28.233608;LS;1969334
Gibraltar;180;0;176;36.1408;-5.3536;GI;29581
Cambodia;156;0;133;11.55;104.9167;KH;16926984
Bermuda;150;9;137;32.3078;-64.7505;BM;71750
Brunei;141;3;138;4.5353;114.7277;BN;464478
"Trinidad and Tobago";133;8;120;10.6918;-61.2225;TT;1208789
Bahamas;111;11;89;25.025885;-78.035889;BS;337721
Monaco;109;4;96;43.7333;7.4167;MC;39000
Aruba;105;3;99;12.5211;-69.9683;AW;119428
Barbados;103;7;90;13.1939;-59.5432;BB;294560
Seychelles;100;0;11;-4.6796;55.492;SC;95981
Liechtenstein;84;1;81;47.14;9.55;LI;39137
Bhutan;82;0;76;27.5142;90.4336;BT;782318
"Sint Maarten";78;15;63;18.0425;-63.0548;SX;32556
"Antigua and Barbuda";74;3;57;17.0608;-61.7964;AG;98179
"Turks and Caicos Islands";71;2;11;21.694;-71.7979;TC;55926
Gambia;64;3;34;13.4432;-15.3101;GM;2173999
"French Polynesia";62;0;60;-17.6797;-149.4068;PF;295121
Macau;46;0;45;22.1667;113.55;MO;614458
Belize;37;2;20;17.1899;-88.4976;BZ;374681
"Saint Vincent and the Grenadines";29;0;29;12.9843;-61.2872;VC;101390
Fiji;26;0;18;-17.7134;178.065;FJ;935974
Curacao;25;1;24;12.1696;-68.99;CW;151345
Timor-Leste;24;0;24;-8.874217;125.727539;TL;1383723
Grenada;23;0;23;12.1165;-61.679;GD;113094
"Saint Lucia";22;0;19;13.9094;-60.9789;LC;166487
"New Caledonia";21;0;21;-20.904305;165.618042;NC;290009
Laos;19;0;19;19.85627;102.495496;LA;7447396
Dominica;18;0;18;15.415;-61.371;DM;74243
"Saint Kitts and Nevis";17;0;15;17.357822;-62.782998;KN;55345
"Falkland Islands (Malvinas)";13;0;13;-51.7963;-59.5236;FK;3198
Greenland;13;0;13;71.7069;-42.6043;GL;57616
Montserrat;12;1;10;16.742498;-62.187366;MS;5373
"Holy See";12;0;12;41.9029;12.4534;VA;1000
"Papua New Guinea";11;0;8;-6.314993;143.95555;PG;7259456
"Western Sahara";10;1;8;24.2155;-12.8858;EH;652271
"British Virgin Islands";8;1;7;18.4207;-64.64;VG;31196
"Saint Barthelemy";6;0;6;17.9;-62.8333;BL;7122
Anguilla;3;0;3;18.2206;-63.0686;AI;18090
"Saint Pierre and Miquelon";2;0;1;46.8852;-56.3159;PM;5347
"American Samoa";0;0;0;-14.271;-170.132;AS;49437
