Country;"Confirmed Cases";Deaths;Recovered;Latitude;Longitude;"Country Code";Size
US;2824425;129486;883561;44.693947;-69.381927;US;332639102
Brazil;1539081;63174;984615;-10.1753;-48.2982;BR;211715973
Russia;673564;10011;446127;52.248521;115.956325;RU;141722205
India;648315;18655;394227;23.814082;87.979803;IN;1326093247
Peru;299080;10412;185852;-9.621718;-73.444929;PE;31914989
Chile;291847;6192;257451;-33.0472;-71.6127;CL;18186770
"United Kingdom";285471;44245;512;52.1307;-3.7837;GB;65761117
Spain;250545;28385;150376;42.9896;-2.6189;ES;50015792
Mexico;245251;29843;189345;22.7709;-102.5832;MX;128649565
Italy;241419;34854;191944;45.43490485;12.33845213;IT;62402659
Iran;237878;11408;198949;32.427908;53.688046;IR;84923314
Pakistan;225283;4619;125094;26.009446;68.776807;PK;233500636
"Saudi Arabia";205929;1858;143256;23.885942;45.079162;SA;34173498
Turkey;204610;5206;179492;38.9637;35.2433;TR;82017514
France;204132;29896;77097;46.2276;2.2137;FR;67848156
Germany;197198;9020;181000;51.011;10.8453;DE;80159662
"South Africa";177124;2952;86298;-30.5595;22.9375;ZA;56463617
Bangladesh;159679;1997;70721;23.685;90.3563;BD;162650853
Colombia;109793;4001;45409;4.4234;-69.2878;CO;49084841
Canada;107136;8731;70437;64.2823;-135;CA;37694085
Qatar;99183;123;90387;25.3548;51.1839;QA;2444174
China;83546;4634;78510;29.1832;120.0934;CN;1394015977
Egypt;74035;3280;20103;26.820553;30.802498;EG;104124440
Argentina;72786;1453;25930;-38.4161;-63.6167;AR;45479118
Sweden;71419;5420;0;58.2528;13.0596;SE;10202491
Belarus;63270;418;50669;53.7098;27.9534;BY;9477918
Indonesia;62142;3089;28219;-0.7893;113.9213;ID;267026366
Belgium;61838;9771;17091;50.8333;4.469936;BE;11720716
Ecuador;61535;4769;28507;-1.8312;-78.1834;EC;16904867
Iraq;58354;2368;31077;33.223191;43.679291;IQ;38872655
"United Arab Emirates";50857;321;39857;23.424076;53.847818;AE;9992083
Netherlands;50342;6113;7;52.1326;5.2913;NL;17280397
Kuwait;49303;365;39943;29.31166;47.481766;KW;2993706
Ukraine;48628;1243;21907;50.2547;28.6587;UA;43922939
Kazakhstan;45719;188;15556;48.0196;66.9237;KZ;19091949
Oman;45106;203;26968;21.512583;55.923255;OM;4664844
Singapore;44664;26;40117;1.2833;103.8333;SG;6209660
Portugal;43569;1605;28772;39.3999;-8.2245;PT;10302674
Philippines;41830;1290;11453;12.879721;121.774017;PH;109180815
Bolivia;36818;1320;10766;-16.2902;-63.5887;BO;11639909
"Dominican Republic";36184;786;18602;18.7357;-70.1627;DO;10499707
Panama;35995;698;16945;8.538;-80.7821;PA;3894082
Poland;35719;1512;23127;51.9194;19.1451;PL;38282325
Afghanistan;32672;826;19164;33.93911;67.709953;AF;36643815
Switzerland;32198;1965;29200;46.8182;8.2275;CH;8403994
Israel;29170;330;17816;31.046051;34.851612;IL;8675475
Bahrain;28857;96;23959;26.0275;50.55;BH;1505003
Romania;28582;1731;19854;45.9432;24.9668;RO;21302893
Armenia;27900;477;15935;40.0691;45.0382;AM;3021324
Nigeria;27564;628;11069;9.082;8.6753;NG;214028302
Ireland;25509;1741;23364;53.1424;-7.6921;IE;5176569
Honduras;22116;605;2250;15.2;-86.2419;HN;9235340
Guatemala;21293;880;3315;15.7835;-90.2308;GT;17153288
Azerbaijan;19801;241;11291;40.1431;47.5769;AZ;10205810
Japan;19459;977;16798;35.612364;138.611489;JP;125507472
Ghana;19388;117;14330;7.9465;-1.0232;GH;29340248
Austria;18165;705;16607;47.5162;14.5501;AT;8859449
Moldova;17672;580;10396;47.4116;28.3699;MD;3364496
Serbia;15829;306;13176;44.0165;21.0059;RS;7012165
Algeria;15500;946;11181;28.0339;1.6596;DZ;42972878
Nepal;15491;34;6415;28.1667;84.25;NP;30327877
Morocco;13822;232;9329;31.7917;-7.0926;MA;35561654
"Korea, South";13030;283;11811;35.907757;127.766922;KR;51835110
Denmark;12832;606;11817;56.2639;9.5018;DK;5869410
Cameroon;12592;313;10100;3.848;11.5021;CM;27744989
Czechia;12372;353;7851;49.8175;15.473;CZ;10702498
"Cote d'Ivoire";10462;72;4807;7.54;-5.5471;CI;27481086
Uzbekistan;9708;31;6425;41.377491;64.585262;UZ;30565411
Sudan;9663;604;4624;12.8628;30.2176;SD;45561556
Norway;8926;251;8138;60.472;8.4689;NO;5467439
Malaysia;8658;121;8461;4.210484;101.975766;MY;32652083
Australia;8362;104;7355;-31.9505;115.8605;AU;25466459
"Puerto Rico";7787;155;0;18.2208;-66.5901;PR;3189068
Kenya;7577;159;2236;-0.0236;37.9062;KE;53527936
"El Salvador";7507;210;4434;13.7942;-88.8965;SV;6481102
"Congo (Kinshasa)";7379;182;2961;-4.0383;21.7587;CG;101780263
Senegal;7272;129;4713;14.4974;-14.4524;SN;15736368
Finland;7248;329;6700;61.92411;25.748151;FI;5571665
Kyrgyzstan;7094;78;2714;41.20438;74.766098;KG;5964897
"North Macedonia";6932;334;2987;41.6086;21.7453;MK;2125971
Venezuela;6537;59;2100;6.4238;-66.5897;VE;28644603
Haiti;6230;110;1286;18.9712;-72.2852;HT;11067777
Tajikistan;6159;52;4809;38.861034;71.276093;TJ;8873669
Ethiopia;5846;103;2430;9.145;40.4897;ET;108113150
Bulgaria;5677;241;2898;42.7339;25.4858;BG;6966899
Gabon;5620;44;2555;-0.8037;11.6094;GA;2230908
Guinea;5521;33;4446;9.9456;-9.6966;GN;12527440
"Bosnia and Herzegovina";4962;191;2550;43.9159;17.6791;BA;3835586
Djibouti;4736;55;4580;11.8251;42.5903;DJ;921804
Mauritania;4705;129;1765;21.0079;-10.9408;MR;4005475
"Costa Rica";4621;18;1721;9.7489;-83.7534;CR;5097988
Luxembourg;4476;110;4016;49.8153;6.1296;LU;628381
Hungary;4174;589;2784;47.1625;19.5033;HU;9771827
"Central African Republic";3918;48;859;6.6111;20.9394;CF;5990855
Greece;3511;192;1374;39.0742;21.8243;GR;10607051
Thailand;3185;58;3066;15.870032;100.992541;TH;68977400
Croatia;3094;113;2183;45.1;15.2;HR;4227746
"Equatorial Guinea";3071;51;842;1.6508;10.2679;GQ;836178
Kosovo;3064;55;1707;42.602636;20.902977;XK;1932774
Somalia;2961;92;973;5.152149;46.199616;SO;11757124
Albania;2819;74;1637;41.1533;20.1683;AL;3074579
Madagascar;2728;29;1078;-18.766947;46.869107;MG;26955737
Nicaragua;2519;83;1238;12.865416;-85.207229;NI;6203441
Maldives;2435;10;1976;3.2028;73.2207;MV;391904
Paraguay;2385;20;1134;-23.4425;-58.4438;PY;7191685
Cuba;2369;86;2227;21.521757;-77.781167;CU;11059062
Mali;2303;118;1516;17.570692;-3.996166;ML;19553397
"Sri Lanka";2074;11;1885;7.873054;80.771797;LK;22889201
"South Sudan";2021;38;333;6.877;31.307;SS;10561244
Estonia;1993;69;1870;58.5953;25.0136;EE;1228624
Iceland;1855;10;1832;64.9631;-19.0208;IS;350734
Lebanon;1855;35;1304;33.8547;35.8623;LB;5469612
Lithuania;1831;79;1545;55.1694;23.8813;LT;2731464
Guinea-Bissau;1765;25;676;11.8037;-15.1804;GW;2065173
Slovakia;1749;28;1466;48.669;19.699;SK;5440602
Slovenia;1679;111;1384;46.1512;14.9955;SI;2102678
Zambia;1632;30;1348;-13.133897;27.849332;ZM;17426623
"Congo (Brazzaville)";1557;44;501;-0.228;15.8277;CD;5293070
"Sierra Leone";1533;62;1051;8.460555;-11.779889;SL;6624933
"New Zealand";1530;22;1490;-40.9006;174.886;NZ;4925477
Malawi;1498;16;317;-13.254308;34.301525;MW;21196629
"Cabo Verde";1421;16;654;16.5388;-23.0418;CV;583255
"Hong Kong";1258;7;1145;22.3;114.2;HK;7249907
Yemen;1248;337;537;15.552727;48.516388;YE;29884405
Benin;1199;21;333;9.3077;2.3158;BJ;12864634
Tunisia;1186;50;1046;33.886917;9.537499;TN;11721177
Jordan;1150;10;902;31.24;36.51;JO;10820644
Latvia;1123;30;1000;56.8796;24.6032;LV;1881232
Rwanda;1092;3;523;-1.9403;29.8739;RW;12712431
Niger;1082;68;963;17.607789;8.081666;NE;22772361
Cyprus;1002;19;839;35.1264;33.4299;CY;1266676
"Burkina Faso";980;53;854;12.2383;-1.5616;BF;20835401
Mozambique;969;7;256;-18.665695;35.529562;MZ;30098197
Eswatini;954;13;535;-26.5225;31.4659;SZ;1104479
Uruguay;952;28;837;-32.5228;-55.7658;UY;3387605
Georgia;948;15;825;42.3154;43.3569;GE;3997000
Uganda;927;0;868;1.373333;32.290275;UG;43252966
Libya;918;27;230;26.3351;17.228331;LY;6679000
Chad;871;74;787;15.4542;18.7322;TD;16877357
Liberia;869;37;369;6.428055;-9.429499;LR;5073296
Andorra;855;52;800;42.5063;1.5218;AD;77000
Jamaica;721;10;565;18.1096;-77.2975;JM;2808570
Montenegro;720;13;315;42.708678;19.37439;ME;609859
"Sao Tome and Principe";719;13;267;0.18636;6.613081;ST;211122
"Diamond Princess";712;14;651;35.4437;139.6380;OT;3711
"San Marino";698;42;656;43.9424;12.4578;SM;34232
Zimbabwe;698;8;181;-19.015438;29.154857;ZW;14546314
Malta;672;9;650;35.9375;14.3754;MT;457267
Togo;671;14;424;8.6195;0.8248;TG;8608444
Suriname;565;14;276;3.9193;-56.0278;SR;609569
Tanzania;509;21;183;-6.369028;34.888822;TZ;58552845
Taiwan*;449;7;438;23.7;121;TW;23603049
Namibia;375;0;25;-22.9576;18.4904;NA;2630073
Vietnam;355;0;340;14.058324;108.277199;VN;98721275
Mauritius;341;10;330;-20.348404;57.552152;MU;1379365
Syria;338;10;123;34.802075;38.996815;SY;19398448
"Isle of Man";336;24;312;54.2361;-4.5481;IM;90499
Angola;328;18;107;-11.2027;17.8739;AO;32522339
Burma;313;6;240;21.9162;95.956;MM;56590071
Comoros;309;7;241;-11.6455;43.3333;KM;846281
Guam;280;5;0;13.4443;144.7937;GU;168485
Botswana;277;1;29;-22.3285;24.6849;BW;2317233
Guyana;256;14;117;4.860416;-58.93018;GY;750204
Mongolia;220;0;183;46.8625;103.8467;MN;3168026
Eritrea;215;0;56;15.1794;39.7823;ER;6081196
"Cayman Islands";201;1;194;19.3133;-81.2546;KY;61944
Burundi;191;1;118;-3.3731;29.9189;BI;11865821
"Faroe Islands";187;0;187;61.8926;-6.9118;FO;51628
Gibraltar;178;0;176;36.1408;-5.3536;GI;29581
Bermuda;146;9;137;32.3078;-64.7505;BM;71750
Brunei;141;3;138;4.5353;114.7277;BN;464478
Cambodia;141;0;131;11.55;104.9167;KH;16926984
"Trinidad and Tobago";130;8;115;10.6918;-61.2225;TT;1208789
Monaco;106;4;95;43.7333;7.4167;MC;39000
Aruba;105;3;98;12.5211;-69.9683;AW;119428
Bahamas;104;11;89;25.025885;-78.035889;BS;337721
Barbados;97;7;90;13.1939;-59.5432;BB;294560
Liechtenstein;83;1;81;47.14;9.55;LI;39137
Seychelles;81;0;11;-4.6796;55.492;SC;95981
"Sint Maarten";78;15;63;18.0425;-63.0548;SX;32556
Bhutan;78;0;51;27.5142;90.4336;BT;782318
"Antigua and Barbuda";68;3;23;17.0608;-61.7964;AG;98179
"French Polynesia";62;0;60;-17.6797;-149.4068;PF;295121
Gambia;55;2;27;13.4432;-15.3101;GM;2173999
Macau;46;0;45;22.1667;113.55;MO;614458
"Turks and Caicos Islands";45;2;11;21.694;-71.7979;TC;55926
Lesotho;35;0;11;-29.609988;28.233608;LS;1969334
Belize;30;2;19;17.1899;-88.4976;BZ;374681
"Saint Vincent and the Grenadines";29;0;29;12.9843;-61.2872;VC;101390
Timor-Leste;24;0;24;-8.874217;125.727539;TL;1383723
Curacao;23;1;19;12.1696;-68.99;CW;151345
Grenada;23;0;23;12.1165;-61.679;GD;113094
"Saint Lucia";22;0;19;13.9094;-60.9789;LC;166487
"New Caledonia";21;0;21;-20.904305;165.618042;NC;290009
Laos;19;0;19;19.85627;102.495496;LA;7447396
Dominica;18;0;18;15.415;-61.371;DM;74243
Fiji;18;0;18;-17.7134;178.065;FJ;935974
"Saint Kitts and Nevis";15;0;15;17.357822;-62.782998;KN;55345
"Falkland Islands (Malvinas)";13;0;13;-51.7963;-59.5236;FK;3198
Greenland;13;0;13;71.7069;-42.6043;GL;57616
"Holy See";12;0;12;41.9029;12.4534;VA;1000
"Papua New Guinea";11;0;8;-6.314993;143.95555;PG;7259456
Montserrat;11;1;10;16.742498;-62.187366;MS;5373
"Western Sahara";10;1;8;24.2155;-12.8858;EH;652271
"British Virgin Islands";8;1;7;18.4207;-64.64;VG;31196
"Saint Barthelemy";6;0;6;17.9;-62.8333;BL;7122
Anguilla;3;0;3;18.2206;-63.0686;AI;18090
"Saint Pierre and Miquelon";1;0;1;46.8852;-56.3159;PM;5347
"American Samoa";0;0;0;-14.271;-170.132;AS;49437
