Country;"Confirmed Cases";Deaths;Recovered;Latitude;Longitude;"Country Code";Size
US;2650520;127523;720631;44.693947;-69.381927;US;332639102
Brazil;1402041;59594;788318;-10.1753;-48.2982;BR;211715973
Russia;653479;9521;422235;52.248521;115.956325;RU;141722205
India;585481;17400;347912;23.814082;87.979803;IN;1326093247
"United Kingdom";314054;43953;512;52.1307;-3.7837;GB;65761117
Peru;285213;9677;174535;-9.621718;-73.444929;PE;31914989
Chile;282043;5753;245443;-33.0472;-71.6127;CL;18186770
Spain;249659;28364;150376;42.9896;-2.6189;ES;50015792
Italy;240760;34788;190717;45.43490485;12.33845213;IT;62402659
Iran;230211;10958;191487;32.427908;53.688046;IR;84923314
Mexico;226089;27769;174538;22.7709;-102.5832;MX;128649565
Pakistan;213470;4395;100802;26.009446;68.776807;PK;233500636
France;201973;29846;76311;46.2276;2.2137;FR;67848156
Turkey;201098;5150;175422;38.9637;35.2433;TR;82017514
Germany;195781;8995;178320;51.011;10.8453;DE;80159662
"Saudi Arabia";194225;1698;132760;23.885942;45.079162;SA;34173498
"South Africa";151209;2657;73543;-30.5595;22.9375;ZA;56463617
Bangladesh;149258;1888;62108;23.685;90.3563;BD;162650853
Canada;106173;8673;69271;64.2823;-135;CA;37694085
Qatar;97003;115;83965;25.3548;51.1839;QA;2444174
Colombia;95269;3376;40021;4.4234;-69.2878;CO;49084841
China;83534;4634;78485;29.1832;120.0934;CN;1394015977
Sweden;69692;5370;0;58.2528;13.0596;SE;10202491
Egypt;68311;2953;18460;26.820553;30.802498;EG;104124440
Argentina;64530;1310;23040;-38.4161;-63.6167;AR;45479118
Belarus;62424;398;47553;53.7098;27.9534;BY;9477918
Belgium;61509;9754;17021;50.8333;4.469936;BE;11720716
Indonesia;57770;2934;25595;-0.7893;113.9213;ID;267026366
Ecuador;56432;4527;27594;-1.8312;-78.1834;EC;16904867
Iraq;51524;2050;26267;33.223191;43.679291;IQ;38872655
Netherlands;50280;6113;7;52.1326;5.2913;NL;17280397
"United Arab Emirates";48667;315;37566;23.424076;53.847818;AE;9992083
Kuwait;46940;358;37715;29.31166;47.481766;KW;2993706
Ukraine;45924;1188;20244;50.2547;28.6587;UA;43922939
Singapore;44122;26;39011;1.2833;103.8333;SG;6209660
Portugal;42454;1579;27798;39.3999;-8.2245;PT;10302674
Oman;41194;185;24162;21.512583;55.923255;OM;4664844
Philippines;38511;1270;10438;12.879721;121.774017;PH;109180815
Poland;34775;1477;21791;51.9194;19.1451;PL;38282325
Panama;33550;631;15745;8.538;-80.7821;PA;3894082
Bolivia;33219;1123;9340;-16.2902;-63.5887;BO;11639909
"Dominican Republic";32568;747;17580;18.7357;-70.1627;DO;10499707
Switzerland;31851;1965;29200;46.8182;8.2275;CH;8403994
Afghanistan;31836;774;15651;33.93911;67.709953;AF;36643815
Romania;27296;1667;19314;45.9432;24.9668;RO;21302893
Bahrain;26758;91;21331;26.0275;50.55;BH;1505003
Armenia;26065;453;14563;40.0691;45.0382;AM;3021324
Israel;26021;321;17429;31.046051;34.851612;IL;8675475
Nigeria;25694;590;9746;9.082;8.6753;NG;214028302
Ireland;25473;1736;23364;53.1424;-7.6921;IE;5176569
Kazakhstan;22308;188;13845;48.0196;66.9237;KZ;19091949
Honduras;19558;497;2060;15.2;-86.2419;HN;9235340
Japan;18741;976;16563;35.612364;138.611489;JP;125507472
Azerbaijan;18112;220;10061;40.1431;47.5769;AZ;10205810
Guatemala;18096;773;3194;15.7835;-90.2308;GT;17153288
Austria;17873;705;16491;47.5162;14.5501;AT;8859449
Ghana;17741;112;13268;7.9465;-1.0232;GH;29340248
Moldova;16898;549;9594;47.4116;28.3699;MD;3364496
Serbia;14836;281;12772;44.0165;21.0059;RS;7012165
Algeria;14272;920;10040;28.0339;1.6596;DZ;42972878
Nepal;14046;30;4656;28.1667;84.25;NP;30327877
"Korea, South";12850;282;11613;35.907757;127.766922;KR;51835110
Denmark;12794;606;11693;56.2639;9.5018;DK;5869410
Morocco;12636;228;9026;31.7917;-7.0926;MA;35561654
Cameroon;12592;313;10100;3.848;11.5021;CM;27744989
Czechia;12006;349;7797;49.8175;15.473;CZ;10702498
"Cote d'Ivoire";9499;68;4273;7.54;-5.5471;CI;27481086
Sudan;9257;572;4014;12.8628;30.2176;SD;45561556
Norway;8887;250;8138;60.472;8.4689;NO;5467439
Uzbekistan;8671;26;5834;41.377491;64.585262;UZ;30565411
Malaysia;8640;121;8375;4.210484;101.975766;MY;32652083
Australia;7920;104;7063;-31.9505;115.8605;AU;25466459
"Puerto Rico";7537;153;0;18.2208;-66.5901;PR;3189068
Finland;7236;328;6700;61.92411;25.748151;FI;5571665
"Congo (Kinshasa)";7122;175;1785;-4.0383;21.7587;CG;101780263
Senegal;6925;116;4545;14.4974;-14.4524;SN;15736368
"El Salvador";6736;182;3964;13.7942;-88.8965;SV;6481102
Kenya;6673;149;2089;-0.0236;37.9062;KE;53527936
"North Macedonia";6454;306;2598;41.6086;21.7453;MK;2125971
Tajikistan;6005;52;4627;38.861034;71.276093;TJ;8873669
Haiti;5975;105;931;18.9712;-72.2852;HT;11067777
Ethiopia;5846;103;2430;9.145;40.4897;ET;108113150
Venezuela;5832;51;1649;6.4238;-66.5897;VE;28644603
Kyrgyzstan;5735;62;2443;41.20438;74.766098;KG;5964897
Gabon;5394;42;2420;-0.8037;11.6094;GA;2230908
Guinea;5391;33;4326;9.9456;-9.6966;GN;12527440
Bulgaria;4989;230;2676;42.7339;25.4858;BG;6966899
Djibouti;4704;55;4550;11.8251;42.5903;DJ;921804
"Bosnia and Herzegovina";4606;188;2432;43.9159;17.6791;BA;3835586
Mauritania;4363;129;1622;21.0079;-10.9408;MR;4005475
Luxembourg;4345;110;4003;49.8153;6.1296;LU;628381
Hungary;4157;586;2714;47.1625;19.5033;HU;9771827
"Central African Republic";3745;47;787;6.6111;20.9394;CF;5990855
"Costa Rica";3459;16;1436;9.7489;-83.7534;CR;5097988
Greece;3432;192;1374;39.0742;21.8243;GR;10607051
Thailand;3173;58;3059;15.870032;100.992541;TH;68977400
Somalia;2924;90;910;5.152149;46.199616;SO;11757124
Kosovo;2878;51;1577;42.602636;20.902977;XK;1932774
Croatia;2831;108;2155;45.1;15.2;HR;4227746
Albania;2580;65;1516;41.1533;20.1683;AL;3074579
Nicaragua;2519;83;1238;12.865416;-85.207229;NI;6203441
Maldives;2382;9;1954;3.2028;73.2207;MV;391904
Cuba;2348;86;2218;21.521757;-77.781167;CU;11059062
Madagascar;2303;22;1006;-18.766947;46.869107;MG;26955737
Paraguay;2221;17;1089;-23.4425;-58.4438;PY;7191685
Mali;2181;116;1474;17.570692;-3.996166;ML;19553397
"Sri Lanka";2054;11;1748;7.873054;80.771797;LK;22889201
"South Sudan";2007;38;279;6.877;31.307;SS;10561244
"Equatorial Guinea";2001;32;515;1.6508;10.2679;GQ;836178
Estonia;1989;69;1836;58.5953;25.0136;EE;1228624
Iceland;1847;10;1823;64.9631;-19.0208;IS;350734
Lithuania;1818;78;1524;55.1694;23.8813;LT;2731464
Lebanon;1788;34;1223;33.8547;35.8623;LB;5469612
Slovakia;1687;28;1466;48.669;19.699;SK;5440602
Guinea-Bissau;1654;24;317;11.8037;-15.1804;GW;2065173
Zambia;1632;30;1348;-13.133897;27.849332;ZM;17426623
Slovenia;1613;111;1384;46.1512;14.9955;SI;2102678
"New Zealand";1528;22;1484;-40.9006;174.886;NZ;4925477
"Sierra Leone";1462;60;974;8.460555;-11.779889;SL;6624933
"Cabo Verde";1267;15;629;16.5388;-23.0418;CV;583255
Malawi;1265;16;260;-13.254308;34.301525;MW;21196629
"Hong Kong";1233;7;1117;22.3;114.2;HK;7249907
Benin;1199;21;333;9.3077;2.3158;BJ;12864634
Yemen;1190;318;504;15.552727;48.516388;YE;29884405
Tunisia;1175;50;1038;33.886917;9.537499;TN;11721177
Jordan;1133;9;886;31.24;36.51;JO;10820644
Latvia;1121;30;974;56.8796;24.6032;LV;1881232
"Congo (Brazzaville)";1087;37;456;-0.228;15.8277;CD;5293070
Niger;1075;67;943;17.607789;8.081666;NE;22772361
Rwanda;1025;2;447;-1.9403;29.8739;RW;12712431
Cyprus;999;19;833;35.1264;33.4299;CY;1266676
"Burkina Faso";962;53;838;12.2383;-1.5616;BF;20835401
Uruguay;936;27;824;-32.5228;-55.7658;UY;3387605
Georgia;931;15;794;42.3154;43.3569;GE;3997000
Mozambique;903;6;248;-18.665695;35.529562;MZ;30098197
Uganda;893;0;837;1.373333;32.290275;UG;43252966
Chad;866;74;781;15.4542;18.7322;TD;16877357
Andorra;855;52;799;42.5063;1.5218;AD;77000
Libya;824;24;209;26.3351;17.228331;LY;6679000
Eswatini;812;11;408;-26.5225;31.4659;SZ;1104479
Liberia;804;37;335;6.428055;-9.429499;LR;5073296
"Sao Tome and Principe";714;13;236;0.18636;6.613081;ST;211122
"Diamond Princess";712;14;651;35.4437;139.6380;OT;3711
Jamaica;702;10;553;18.1096;-77.2975;JM;2808570
"San Marino";698;42;656;43.9424;12.4578;SM;34232
Malta;671;9;647;35.9375;14.3754;MT;457267
Togo;650;14;402;8.6195;0.8248;TG;8608444
Zimbabwe;591;7;162;-19.015438;29.154857;ZW;14546314
Montenegro;576;12;315;42.708678;19.37439;ME;609859
Suriname;517;13;227;3.9193;-56.0278;SR;609569
Tanzania;509;21;183;-6.369028;34.888822;TZ;58552845
Taiwan*;447;7;437;23.7;121;TW;23603049
Vietnam;355;0;335;14.058324;108.277199;VN;98721275
Mauritius;341;10;326;-20.348404;57.552152;MU;1379365
"Isle of Man";336;24;312;54.2361;-4.5481;IM;90499
Comoros;303;7;200;-11.6455;43.3333;KM;846281
Burma;303;6;222;21.9162;95.956;MM;56590071
Syria;293;9;110;34.802075;38.996815;SY;19398448
Angola;284;13;93;-11.2027;17.8739;AO;32522339
Guam;267;5;0;13.4443;144.7937;GU;168485
Namibia;257;0;24;-22.9576;18.4904;NA;2630073
Guyana;245;12;114;4.860416;-58.93018;GY;750204
Botswana;227;1;28;-22.3285;24.6849;BW;2317233
Mongolia;220;0;176;46.8625;103.8467;MN;3168026
Eritrea;203;0;53;15.1794;39.7823;ER;6081196
"Cayman Islands";200;1;191;19.3133;-81.2546;KY;61944
"Faroe Islands";187;0;187;61.8926;-6.9118;FO;51628
Gibraltar;178;0;176;36.1408;-5.3536;GI;29581
Burundi;170;1;115;-3.3731;29.9189;BI;11865821
Bermuda;146;9;135;32.3078;-64.7505;BM;71750
Cambodia;141;0;131;11.55;104.9167;KH;16926984
Brunei;141;3;138;4.5353;114.7277;BN;464478
"Trinidad and Tobago";130;8;113;10.6918;-61.2225;TT;1208789
Bahamas;104;11;87;25.025885;-78.035889;BS;337721
Aruba;103;3;98;12.5211;-69.9683;AW;119428
Monaco;103;4;95;43.7333;7.4167;MC;39000
Barbados;97;7;90;13.1939;-59.5432;BB;294560
Liechtenstein;82;1;81;47.14;9.55;LI;39137
Seychelles;81;0;11;-4.6796;55.492;SC;95981
Bhutan;77;0;48;27.5142;90.4336;BT;782318
"Sint Maarten";77;15;62;18.0425;-63.0548;SX;32556
"Antigua and Barbuda";69;3;22;17.0608;-61.7964;AG;98179
"French Polynesia";62;0;60;-17.6797;-149.4068;PF;295121
Gambia;49;2;27;13.4432;-15.3101;GM;2173999
Macau;46;0;45;22.1667;113.55;MO;614458
"Turks and Caicos Islands";42;2;11;21.694;-71.7979;TC;55926
"Saint Vincent and the Grenadines";29;0;29;12.9843;-61.2872;VC;101390
Belize;28;2;18;17.1899;-88.4976;BZ;374681
Lesotho;27;0;4;-29.609988;28.233608;LS;1969334
Timor-Leste;24;0;24;-8.874217;125.727539;TL;1383723
Curacao;23;1;19;12.1696;-68.99;CW;151345
Grenada;23;0;23;12.1165;-61.679;GD;113094
"New Caledonia";21;0;21;-20.904305;165.618042;NC;290009
"Saint Lucia";19;0;19;13.9094;-60.9789;LC;166487
Laos;19;0;19;19.85627;102.495496;LA;7447396
Fiji;18;0;18;-17.7134;178.065;FJ;935974
Dominica;18;0;18;15.415;-61.371;DM;74243
"Saint Kitts and Nevis";15;0;15;17.357822;-62.782998;KN;55345
"Falkland Islands (Malvinas)";13;0;13;-51.7963;-59.5236;FK;3198
Greenland;13;0;13;71.7069;-42.6043;GL;57616
"Holy See";12;0;12;41.9029;12.4534;VA;1000
"Papua New Guinea";11;0;8;-6.314993;143.95555;PG;7259456
Montserrat;11;1;10;16.742498;-62.187366;MS;5373
"Western Sahara";10;1;8;24.2155;-12.8858;EH;652271
"British Virgin Islands";8;1;7;18.4207;-64.64;VG;31196
"Saint Barthelemy";6;0;6;17.9;-62.8333;BL;7122
Anguilla;3;0;3;18.2206;-63.0686;AI;18090
"Saint Pierre and Miquelon";1;0;1;46.8852;-56.3159;PM;5347
"American Samoa";0;0;0;-14.271;-170.132;AS;49437
