Country;"Confirmed Cases";Deaths;Recovered;Latitude;Longitude;"Country Code";Size
US;3352734;135433;1031856;44.693947;-69.381927;US;332639102
Brazil;1884967;72833;1291251;-10.1753;-48.2982;BR;211715973
India;878254;23174;553471;23.814082;87.979803;IN;1326093247
Russia;732547;11422;503168;52.248521;115.956325;RU;141722205
Peru;330123;12054;221008;-9.621718;-73.444929;PE;31914989
Chile;317657;7024;286556;-33.0472;-71.6127;CL;18186770
Mexico;304435;35491;240101;22.7709;-102.5832;MX;128649565
"United Kingdom";290714;44877;512;52.1307;-3.7837;GB;65761117
"South Africa";287796;4172;138241;-30.5595;22.9375;ZA;56463617
Iran;259652;13032;222539;32.427908;53.688046;IR;84923314
Spain;255953;28406;150376;42.9896;-2.6189;ES;50015792
Pakistan;251625;5266;161917;26.009446;68.776807;PK;233500636
Italy;243230;34967;195106;45.43490485;12.33845213;IT;62402659
"Saudi Arabia";235111;2243;169842;23.885942;45.079162;SA;34173498
Turkey;214001;5382;195671;38.9637;35.2433;TR;82017514
France;209549;30032;78634;46.2276;2.2137;FR;67848156
Germany;200180;9074;185100;51.011;10.8453;DE;80159662
Bangladesh;186894;2391;98317;23.685;90.3563;BD;162650853
Colombia;150445;5634;63451;4.4234;-69.2878;CO;49084841
Canada;109984;8835;73381;64.2823;-135;CA;37694085
Qatar;104016;149;100627;25.3548;51.1839;QA;2444174
Argentina;103265;1903;44173;-38.4161;-63.6167;AR;45479118
China;83602;4634;78648;29.1832;120.0934;CN;1394015977
Egypt;83001;3935;24975;26.820553;30.802498;EG;104124440
Iraq;79735;3250;46998;33.223191;43.679291;IQ;38872655
Indonesia;76981;3656;36689;-0.7893;113.9213;ID;267026366
Sweden;75826;5536;0;58.2528;13.0596;SE;10202491
Ecuador;68459;5063;30369;-1.8312;-78.1834;EC;16904867
Belarus;65114;468;55492;53.7098;27.9534;BY;9477918
Belgium;62707;9782;17196;50.8333;4.469936;BE;11720716
Kazakhstan;59899;375;34190;48.0196;66.9237;KZ;19091949
Oman;58179;259;37257;21.512583;55.923255;OM;4664844
Philippines;57006;1599;20371;12.879721;121.774017;PH;109180815
Kuwait;55508;393;45356;29.31166;47.481766;KW;2993706
Ukraine;55285;1415;27356;50.2547;28.6587;UA;43922939
"United Arab Emirates";55198;334;45513;23.424076;53.847818;AE;9992083
Netherlands;51100;6137;7;52.1326;5.2913;NL;17280397
Bolivia;49250;1866;15294;-16.2902;-63.5887;BO;11639909
Panama;47173;932;23919;8.538;-80.7821;PA;3894082
Portugal;46818;1662;31065;39.3999;-8.2245;PT;10302674
Singapore;46283;26;42541;1.2833;103.8333;SG;6209660
"Dominican Republic";45506;903;22441;18.7357;-70.1627;DO;10499707
Israel;40632;365;19395;31.046051;34.851612;IL;8675475
Poland;38190;1576;27515;51.9194;19.1451;PL;38282325
Afghanistan;34455;1012;21254;33.93911;67.709953;AF;36643815
Bahrain;33476;109;29099;26.0275;50.55;BH;1505003
Nigeria;33153;744;13671;9.082;8.6753;NG;214028302
Romania;32948;1901;21692;45.9432;24.9668;RO;21302893
Switzerland;32946;1968;29600;46.8182;8.2275;CH;8403994
Armenia;32151;573;19865;40.0691;45.0382;AM;3021324
Guatemala;29742;1244;4321;15.7835;-90.2308;GT;17153288
Honduras;28579;789;3123;15.2;-86.2419;HN;9235340
Ireland;25638;1746;23364;53.1424;-7.6921;IE;5176569
Ghana;24988;139;21067;7.9465;-1.0232;GH;29340248
Azerbaijan;24570;313;15640;40.1431;47.5769;AZ;10205810
Japan;22098;984;18058;35.612364;138.611489;JP;125507472
Algeria;19689;1018;14019;28.0339;1.6596;DZ;42972878
Moldova;19439;649;12793;47.4116;28.3699;MD;3364496
Austria;18948;708;17000;47.5162;14.5501;AT;8859449
Serbia;18639;405;13940;44.0165;21.0059;RS;7012165
Nepal;16945;38;10294;28.1667;84.25;NP;30327877
Morocco;15936;255;12934;31.7917;-7.0926;MA;35561654
Cameroon;15173;359;11928;3.848;11.5021;CM;27744989
Uzbekistan;13591;64;8030;41.377491;64.585262;UZ;30565411
"Korea, South";13512;289;12282;35.907757;127.766922;KR;51835110
Czechia;13238;353;8373;49.8175;15.473;CZ;10702498
Denmark;13037;610;12130;56.2639;9.5018;DK;5869410
"Cote d'Ivoire";12872;84;6810;7.54;-5.5471;CI;27481086
Kyrgyzstan;11117;147;3460;41.20438;74.766098;KG;5964897
Sudan;10316;657;5403;12.8628;30.2176;SD;45561556
Kenya;10294;197;2946;-0.0236;37.9062;KE;53527936
Australia;10251;108;7835;-31.9505;115.8605;AU;25466459
"Puerto Rico";10010;167;0;18.2208;-66.5901;PR;3189068
"El Salvador";9978;267;5732;13.7942;-88.8965;SV;6481102
Venezuela;9707;93;2671;6.4238;-66.5897;VE;28644603
Norway;8984;253;8138;60.472;8.4689;NO;5467439
Malaysia;8725;122;8520;4.210484;101.975766;MY;32652083
Senegal;8198;150;5514;14.4974;-14.4524;SN;15736368
"North Macedonia";8197;385;4326;41.6086;21.7453;MK;2125971
"Congo (Kinshasa)";8075;190;3620;-4.0383;21.7587;CG;101780263
"Costa Rica";8036;31;2304;9.7489;-83.7534;CR;5097988
Ethiopia;7766;128;2430;9.145;40.4897;ET;108113150
Bulgaria;7411;276;3517;42.7339;25.4858;BG;6966899
Finland;7295;329;6800;61.92411;25.748151;FI;5571665
"Bosnia and Herzegovina";6981;226;3179;43.9159;17.6791;BA;3835586
Haiti;6727;139;2924;18.9712;-72.2852;HT;11067777
Tajikistan;6596;55;5278;38.861034;71.276093;TJ;8873669
Guinea;6141;37;4862;9.9456;-9.6966;GN;12527440
Gabon;6026;46;3475;-0.8037;11.6094;GA;2230908
Mauritania;5446;147;2501;21.0079;-10.9408;MR;4005475
Kosovo;5118;108;2370;42.602636;20.902977;XK;1932774
Madagascar;5080;37;2494;-18.766947;46.869107;MG;26955737
Djibouti;4977;56;4729;11.8251;42.5903;DJ;921804
Luxembourg;4956;111;4183;49.8153;6.1296;LU;628381
"Central African Republic";4321;53;1208;6.6111;20.9394;CF;5990855
Hungary;4247;595;3073;47.1625;19.5033;HU;9771827
Greece;3826;193;1374;39.0742;21.8243;GR;10607051
Croatia;3775;119;2514;45.1;15.2;HR;4227746
Albania;3571;95;2014;41.1533;20.1683;AL;3074579
Thailand;3220;58;3090;15.870032;100.992541;TH;68977400
Somalia;3072;93;1343;5.152149;46.199616;SO;11757124
"Equatorial Guinea";3071;51;842;1.6508;10.2679;GQ;836178
Paraguay;2980;25;1293;-23.4425;-58.4438;PY;7191685
Nicaragua;2846;91;1993;12.865416;-85.207229;NI;6203441
Maldives;2762;13;2290;3.2028;73.2207;MV;391904
"Sri Lanka";2646;11;1981;7.873054;80.771797;LK;22889201
Malawi;2430;39;747;-13.254308;34.301525;MW;21196629
Cuba;2428;87;2268;21.521757;-77.781167;CU;11059062
Lebanon;2419;36;1423;33.8547;35.8623;LB;5469612
Mali;2412;121;1730;17.570692;-3.996166;ML;19553397
"South Sudan";2148;41;333;6.877;31.307;SS;10561244
"Congo (Brazzaville)";2028;47;589;-0.228;15.8277;CD;5293070
Estonia;2014;69;1895;58.5953;25.0136;EE;1228624
Slovakia;1902;28;1493;48.669;19.699;SK;5440602
Iceland;1900;10;1871;64.9631;-19.0208;IS;350734
Zambia;1895;42;1412;-13.133897;27.849332;ZM;17426623
Lithuania;1874;79;1571;55.1694;23.8813;LT;2731464
Slovenia;1849;111;1473;46.1512;14.9955;SI;2102678
Guinea-Bissau;1842;26;773;11.8037;-15.1804;GW;2065173
"Cabo Verde";1698;19;748;16.5388;-23.0418;CV;583255
"Sierra Leone";1642;63;1175;8.460555;-11.779889;SL;6624933
"New Zealand";1545;22;1498;-40.9006;174.886;NZ;4925477
Libya;1512;40;367;26.3351;17.228331;LY;6679000
Yemen;1498;424;675;15.552727;48.516388;YE;29884405
"Hong Kong";1469;7;1214;22.3;114.2;HK;7249907
Eswatini;1389;20;688;-26.5225;31.4659;SZ;1104479
Rwanda;1378;4;710;-1.9403;29.8739;RW;12712431
Benin;1378;26;557;9.3077;2.3158;BJ;12864634
Tunisia;1302;50;1082;33.886917;9.537499;TN;11721177
Montenegro;1287;24;330;42.708678;19.37439;ME;609859
Mozambique;1219;9;369;-18.665695;35.529562;MZ;30098197
Jordan;1183;10;1008;31.24;36.51;JO;10820644
Latvia;1174;31;1019;56.8796;24.6032;LV;1881232
Niger;1099;68;992;17.607789;8.081666;NE;22772361
"Burkina Faso";1036;53;869;12.2383;-1.5616;BF;20835401
Zimbabwe;1034;19;343;-19.015438;29.154857;ZW;14546314
Uganda;1029;0;977;1.373333;32.290275;UG;43252966
Liberia;1024;51;439;6.428055;-9.429499;LR;5073296
Cyprus;1022;19;839;35.1264;33.4299;CY;1266676
Georgia;995;15;857;42.3154;43.3569;GE;3997000
Uruguay;989;31;903;-32.5228;-55.7658;UY;3387605
Chad;880;75;792;15.4542;18.7322;TD;16877357
Namibia;861;1;28;-22.9576;18.4904;NA;2630073
Andorra;858;52;803;42.5063;1.5218;AD;77000
Suriname;780;18;526;3.9193;-56.0278;SR;609569
Jamaica;759;10;628;18.1096;-77.2975;JM;2808570
"Sao Tome and Principe";732;14;286;0.18636;6.613081;ST;211122
Togo;721;15;517;8.6195;0.8248;TG;8608444
"Diamond Princess";712;14;651;35.4437;139.6380;OT;3711
"San Marino";699;42;656;43.9424;12.4578;SM;34232
Malta;674;9;660;35.9375;14.3754;MT;457267
Angola;525;26;118;-11.2027;17.8739;AO;32522339
Tanzania;509;21;183;-6.369028;34.888822;TZ;58552845
Taiwan*;451;7;438;23.7;121;TW;23603049
Syria;417;19;136;34.802075;38.996815;SY;19398448
Botswana;399;1;38;-22.3285;24.6849;BW;2317233
Vietnam;373;0;352;14.058324;108.277199;VN;98721275
Mauritius;342;10;330;-20.348404;57.552152;MU;1379365
"Isle of Man";336;24;312;54.2361;-4.5481;IM;90499
Burma;336;6;261;21.9162;95.956;MM;56590071
Comoros;317;7;296;-11.6455;43.3333;KM;846281
Guam;312;5;0;13.4443;144.7937;GU;168485
Guyana;300;17;155;4.860416;-58.93018;GY;750204
Burundi;269;1;207;-3.3731;29.9189;BI;11865821
Lesotho;245;3;33;-29.609988;28.233608;LS;1969334
Eritrea;232;0;107;15.1794;39.7823;ER;6081196
Mongolia;230;0;203;46.8625;103.8467;MN;3168026
"Cayman Islands";203;1;200;19.3133;-81.2546;KY;61944
"Faroe Islands";188;0;188;61.8926;-6.9118;FO;51628
Gibraltar;180;0;179;36.1408;-5.3536;GI;29581
Cambodia;165;0;133;11.55;104.9167;KH;16926984
Bermuda;150;9;137;32.3078;-64.7505;BM;71750
Brunei;141;3;138;4.5353;114.7277;BN;464478
"Trinidad and Tobago";133;8;124;10.6918;-61.2225;TT;1208789
Bahamas;113;11;91;25.025885;-78.035889;BS;337721
Monaco;109;4;97;43.7333;7.4167;MC;39000
Aruba;105;3;99;12.5211;-69.9683;AW;119428
Barbados;103;7;90;13.1939;-59.5432;BB;294560
Seychelles;100;0;11;-4.6796;55.492;SC;95981
Bhutan;84;0;76;27.5142;90.4336;BT;782318
Liechtenstein;84;1;81;47.14;9.55;LI;39137
"Sint Maarten";78;15;63;18.0425;-63.0548;SX;32556
"Antigua and Barbuda";74;3;57;17.0608;-61.7964;AG;98179
"Turks and Caicos Islands";72;2;11;21.694;-71.7979;TC;55926
Gambia;64;3;34;13.4432;-15.3101;GM;2173999
"French Polynesia";62;0;60;-17.6797;-149.4068;PF;295121
Macau;46;0;45;22.1667;113.55;MO;614458
Belize;37;2;20;17.1899;-88.4976;BZ;374681
"Saint Vincent and the Grenadines";35;0;29;12.9843;-61.2872;VC;101390
Fiji;26;0;18;-17.7134;178.065;FJ;935974
Curacao;25;1;24;12.1696;-68.99;CW;151345
Timor-Leste;24;0;24;-8.874217;125.727539;TL;1383723
Grenada;23;0;23;12.1165;-61.679;GD;113094
"Saint Lucia";22;0;19;13.9094;-60.9789;LC;166487
"New Caledonia";21;0;21;-20.904305;165.618042;NC;290009
Laos;19;0;19;19.85627;102.495496;LA;7447396
Dominica;18;0;18;15.415;-61.371;DM;74243
"Saint Kitts and Nevis";17;0;15;17.357822;-62.782998;KN;55345
"Falkland Islands (Malvinas)";13;0;13;-51.7963;-59.5236;FK;3198
Greenland;13;0;13;71.7069;-42.6043;GL;57616
Montserrat;12;1;10;16.742498;-62.187366;MS;5373
"Holy See";12;0;12;41.9029;12.4534;VA;1000
"Papua New Guinea";11;0;8;-6.314993;143.95555;PG;7259456
"Western Sahara";10;1;8;24.2155;-12.8858;EH;652271
"British Virgin Islands";8;1;7;18.4207;-64.64;VG;31196
"Saint Barthelemy";6;0;6;17.9;-62.8333;BL;7122
Anguilla;3;0;3;18.2206;-63.0686;AI;18090
"Saint Pierre and Miquelon";2;0;1;46.8852;-56.3159;PM;5347
"American Samoa";0;0;0;-14.271;-170.132;AS;49437
