{
    "tabbaritems": [
      "COVID-19 Fälle",
      "Newsticker",
      "Tagebuch",
      "Sonstiges"
    ],
    "tab1subtitle" : "Infektionen nach Ländern",
    "tab1updated" : "Stand: ",
    "cardlabels" : [
        "Bestätigt",
        "Todesfälle",
        "Kuriert",
        "Reproduktionsfaktor"
    ],
    "cardtypes" : [
        "Bakteriell",
        "Infektion",
        "Pilz"
    ],
    "miscitems": [
        "Rechtliche Angaben",
        "App Version",
        "FAQ"
    ],
    "legalitems": [
        "Datenschutz & Nutzungsbedingungen",
        "Impressum"
    ],
    "obsolete_title" : "Versionswarnung",
    "obsolete_message_ios" : "Diese Version von VirusAssist wird nicht mehr unterstützt. Bitte laden Sie sich die aktuelle Version der App im App Store herunter.",
    "obsolete_message_android" : "Diese Version von VirusAssist wird nicht mehr unterstützt. Bitte laden Sie sich die aktuelle Version der App bei Google Play herunter.",
    "store_name_ios" : "App Store",
    "store_name_android" : "Google Play",
    "favourite" : "Favoriten",
    "edit_favourite" : "Bearbeiten",
    "edit_favourite_header" : "Favoriten bearbeiten",
    "search" : "Suche",
    "cancel" : "Abbrechen",
    "no_results" : "Keine Ergebnisse",
    "no_internet" : "Derzeit besteht keine Internetverbindung",
    "diary_header" : "Leiden Sie an folgenden Symptomen?",
    "tips_header" : "Tipps und Tricks",
    "symptom_history" : "Gesundheitsverlauf",
    "back" : "Zurück",
    "done" : "Fertig",
    "as_pdf" : "ALS PDF",
    "symptom_occurence" : "Symptomvorkommen",
    "pdf_filename" : "Symptomvorkommen",
    "pdf_title1" : "ANALYSE",
    "pdf_title2" : "SYMPTOMVORKOMMEN",
    "today" : "Heute",
    "previous_day_title" : "Änderung gegenüber Vortag",
    "population_cases" : "Fälle (% der Gesamtbevölkerung)",
    "trend7days" : "Trend (7 Tage)",
    "travel_warnings" : "Reisewarnungen",
    "export_title" : "VERSENDEN",
    "close" : "Schließen"
}
